evaluator.py 中的eseed为: 124

Industry: cateringServices
===
  Model: end_to_end_model	0 / 21  Model: end_to_end_model	1 / 21  Model: end_to_end_model	2 / 21  Model: end_to_end_model	3 / 21  Model: end_to_end_model	4 / 21  Model: end_to_end_model	5 / 21  Model: end_to_end_model	6 / 21/home/studio-lab-user/.conda/envs/seq2kg/lib/python3.6/site-packages/bert_serving/client/__init__.py:299: UserWarning: some of your sentences have more tokens than "max_seq_len=10" set on the server, as consequence you may get less-accurate or truncated embeddings.
here is what you can do:
- disable the length-check by create a new "BertClient(check_length=False)" when you do not want to display this warning
- or, start a new server with a larger "max_seq_len"
  '- or, start a new server with a larger "max_seq_len"' % self.length_limit)
  Model: end_to_end_model	7 / 21  Model: end_to_end_model	8 / 21  Model: end_to_end_model	9 / 21  Model: end_to_end_model	10 / 21  Model: end_to_end_model	11 / 21  Model: end_to_end_model	12 / 21  Model: end_to_end_model	13 / 21  Model: end_to_end_model	14 / 21  Model: end_to_end_model	15 / 21  Model: end_to_end_model	16 / 21  Model: end_to_end_model	17 / 21  Model: end_to_end_model	18 / 21  Model: end_to_end_model	19 / 21  Model: end_to_end_model	20 / 21  Model: end_to_end_model                                   
    Score (random walk): 0.621
    Score (sim matrix) : 0.635

