index,s1,r,s2
5,Amazon,employed,Amazon delivery venture
6,Saudi - owned company,company,Iranian chefs
7,Sam Beall,proprietor,Walland
7,Sam Beall,in,"Walland , Tenn"
8,Food and Drug Administration,announced,Food and Drug Administration
8,Organization,at,glyphosate
10,burglar,into,Tennessee restaurant
11,London - based,and,major food delivery
11,restaurants,with,equipped
12,General Mills,working,health officials
14,Christine Flynn — Executive Chef,at,Toronto
15,Kola House PepsiCo,is,Kola House
15,Kola House,rival,Coca - Cola
16,Levi ' s Stadium,in,Santa Clara
17,Louisiana brand Tabasco,opened,iconic Louisiana brand Tabasco Tabasco - inspired restaurant
18,Blue Bell Creameries has,has,listeria
19,New Nordic pioneer,acclaimed,Copenhagen restaurant
19,Noma Australia,in,Sydney
20,Georgia Carter,contacted,local TV
