index,s1,r,s2
1,meal,at,Denver airport
2,Eater photographers Michelle,stopped,Detroit
4,Noma,closed,acclaimed Copenhagen restaurant
6,Saudi - owned,company,Iranian
8,glyphosate,found in,Germany
8,Food and Drug Administration,announced,Food and Drug Administration
8,World Health Organization,at,glyphosate
10,Tomato Head restaurant,suspect forced,Knoxville
10,Tomato Head restaurant,in,Knoxville Police Department
11,RooBox,intention of,kitchen space
11,restaurants,with,equipped
15,best restaurant,run,New York City
15,Kola House,opens,Kola House
15,PepsiCo,into,Crystal Pepsi
16,Super Bowl 50,in,Super Bowl 50
17,Louisiana,launch,Louisiana brand Tabasco
17,iconic Louisiana brand Tabasco,opened,iconic Louisiana
17,Louisiana,opened,Louisiana brand Tabasco Tabasco - inspired restaurant
18,Blue Bell Creameries,struggled,listeria
19,success,of,pop
19,Noma Australia,in,Sydney
19,Noma Australia,opened,Barangaroo
20,Georgia Carter,contacted,local TV station
20,Carter,in,Richmond
