index,s1,r,s2
2,Customers,at,Hamtramck
3,McDonald ’ s,funding,two sustainable
5,Amazon,employed,Amazon delivery venture
6,Saudi,company,Iranian chefs
8,Food and Drug Administration,announced,Food and Drug Administration
10,Tomato Head restaurant,in,Knoxville
10,Tomato Head restaurant,in,Knoxville cash register
11,Deliveroo,startup and,food delivery
12,Mills,working,health officials
17,Tabasco,brand,Louisiana
17,Tabasco,opened,Tabasco Tabasco - inspired restaurant
19,Copenhagen,taking,Australia
19,restaurant,s,pop
20,Carter,contacted,TV station
20,TV station,in,Richmond
