index,s1,r,s2
0,Beverly Hills,resident,pizza
1,Francis,proprietor,Kuko
1,His,wants,sushi
1,Francis,star of,Portlandia
2,Eater,photographers,Detroit
4,Noma,closed,restaurant
6,Saudi - owned,company,Iranian chefs
8,Germany,in,Germany beer industry
8,Glyphosate,is,Roundup
8,Organization,concluded,glyphosate
10,burglar,broke into,Tennessee restaurant
10,Knoxville,open,Tennessee restaurant
12,General Mills,issued,General Mills Gold Medal Flour label
12,Liz Nordlie,president of,General Mills baking division
12,General Mills,working with,health officials
14,Christine Flynn,Executive Chef at,Toronto
15,Pepsi,opening,New York restaurant
15,PepsiCo,for bringing,Pepsi
16,Levi 's Stadium,in,Santa Clara
17,McIlhenny Company,produces,sauce
17,McIlhenny Company,opened,Tabasco
18,Philadelphia,based,Veriflow
18,Blue Bell Creameries,struggled with,listeria
19,Instagrammers,closes,Noma
20,Carter,contacted,TV station
