config.py 中的seed为: 124
[36mDEBUG [0m$HOME=%s
[36mDEBUG [0mCONFIGDIR=%s
[36mDEBUG [0mmatplotlib data path: %s
[36mDEBUG [0mloaded rc file %s
[36mDEBUG [0mmatplotlib version %s
[36mDEBUG [0minteractive is %s
[36mDEBUG [0mplatform is %s
[36mDEBUG [0mloaded modules: %s
[36mDEBUG [0m%r
evaluator.py 中的eseed为: 124
sinusoidal_positional_embeddings.py 中的seed为: 124
[32mINFO  [0mLoading model from /home/studio-lab-user/.neuralcoref_cache/neuralcoref
Evaluating model on cateringServices dataset...
[32mINFO  [0mCreated new log directory models/cateringServices/debug/log_29-11-2022_16:51:00.
[36mDEBUG [0mDumped config to models/cateringServices/debug/log_29-11-2022_16:51:00/config.txt.
[36mDEBUG [0mDumped config to models/cateringServices/debug/config.txt.
model.py 中的seed为: 124
[32mINFO  [0mLoading files...
[32mINFO  [0mLoaded data loaders from models/cateringServices/asset/data_loaders.pkl.
[32mINFO  [0mLoaded word vocab from models/cateringServices/asset/word_vocab.pkl.
[32mINFO  [0mLoaded wordpiece vocab from models/cateringServices/asset/wordpiece_vocab.pkl.
[32mINFO  [0mLoaded hierarchy from models/cateringServices/asset/hierarchy.pkl.
[32mINFO  [0mLoaded total wordpieces from models/cateringServices/asset/total_wordpieces.pkl.
[32mINFO  [0mBuilding model.
[32mINFO  [0mConstructing dataloader for documents...
0 / 21[32mINFO  [0m
Receiving                               Predicted: [33m<No predictions>[0m               Actual: [33m<No labels>[0m
a                                       Predicted: [33m<No predictions>[0m               Actual: [33m<No labels>[0m
steady                                  Predicted: [33m<No predictions>[0m               Actual: [33m<No labels>[0m
stream                                  Predicted: [31mhead/3[0m                         Actual: [33m<No labels>[0m
of                                      Predicted: [33m<No predictions>[0m               Actual: [33m<No labels>[0m
unwanted                                Predicted: [33m<No predictions>[0m               Actual: [33m<No labels>[0m
text                                    Predicted: [33m<No predictions>[0m               Actual: [33m<No labels>[0m
messages                                Predicted: [33m<No predictions>[0m               Actual: [33m<No labels>[0m
from                                    Predicted: [33m<No predictions>[0m               Actual: [33m<No labels>[0m
some                                    Predicted: [33m<No predictions>[0m               Actual: [33m<No labels>[0m
acquaintance                            Predicted: [33m<No predictions>[0m               Actual: [33m<No labels>[0m
to                                      Predicted: [33m<No predictions>[0m               Actual: [33m<No labels>[0m
whom                                    Predicted: [33m<No predictions>[0m               Actual: [33m<No labels>[0m
you                                     Predicted: [33m<No predictions>[0m               Actual: [33m<No labels>[0m
foolishly                               Predicted: [33m<No predictions>[0m               Actual: [33m<No labels>[0m
gave                                    Predicted: [33m<No predictions>[0m               Actual: [33m<No labels>[0m
your                                    Predicted: [33m<No predictions>[0m               Actual: [33m<No labels>[0m
number                                  Predicted: [33m<No predictions>[0m               Actual: [33m<No labels>[0m
is                                      Predicted: [33m<No predictions>[0m               Actual: [33m<No labels>[0m
a                                       Predicted: [33m<No predictions>[0m               Actual: [33m<No labels>[0m
true                                    Predicted: [33m<No predictions>[0m               Actual: [33m<No labels>[0m
nightmare                               Predicted: [33m<No predictions>[0m               Actual: [33m<No labels>[0m
scenario                                Predicted: [33m<No predictions>[0m               Actual: [33m<No labels>[0m


1 / 21[32mINFO  [0m
“                                       Predicted: [33m<No predictions>[0m               Actual: [33m<No labels>[0m
I                                       Predicted: [33m<No predictions>[0m               Actual: [33m<No labels>[0m
want                                    Predicted: [33m<No predictions>[0m               Actual: [33m<No labels>[0m
this                                    Predicted: [33m<No predictions>[0m               Actual: [33m<No labels>[0m
to                                      Predicted: [33m<No predictions>[0m               Actual: [33m<No labels>[0m
be                                      Predicted: [33m<No predictions>[0m               Actual: [33m<No labels>[0m
the                                     Predicted: [33m<No predictions>[0m               Actual: [33m<No labels>[0m
unifying                                Predicted: [33m<No predictions>[0m               Actual: [33m<No labels>[0m
sushi                                   Predicted: [33m<No predictions>[0m               Actual: [33m<No labels>[0m
that                                    Predicted: [33m<No predictions>[0m               Actual: [33m<No labels>[0m
anyone                                  Predicted: [33m<No predictions>[0m               Actual: [33m<No labels>[0m
can                                     Predicted: [33m<No predictions>[0m               Actual: [33m<No labels>[0m
eat                                     Predicted: [33m<No predictions>[0m               Actual: [33m<No labels>[0m
,                                       Predicted: [33m<No predictions>[0m               Actual: [33m<No labels>[0m
but                                     Predicted: [33m<No predictions>[0m               Actual: [33m<No labels>[0m
nobody                                  Predicted: [33m<No predictions>[0m               Actual: [33m<No labels>[0m
wants                                   Predicted: [33m<No predictions>[0m               Actual: [33m<No labels>[0m
to                                      Predicted: [33m<No predictions>[0m               Actual: [33m<No labels>[0m
eat                                     Predicted: [33m<No predictions>[0m               Actual: [33m<No labels>[0m
,                                       Predicted: [33m<No predictions>[0m               Actual: [33m<No labels>[0m
”                                       Predicted: [33m<No predictions>[0m               Actual: [33m<No labels>[0m
says                                    Predicted: [33m<No predictions>[0m               Actual: [33m<No labels>[0m
I                                       Predicted: [33m<No predictions>[0m               Actual: [33m<No labels>[0m
is                                      Predicted: [33m<No predictions>[0m               Actual: [33m<No labels>[0m
to                                      Predicted: [33m<No predictions>[0m               Actual: [33m<No labels>[0m
serve                                   Predicted: [33m<No predictions>[0m               Actual: [33m<No labels>[0m
the                                     Predicted: [33m<No predictions>[0m               Actual: [33m<No labels>[0m
“                                       Predicted: [33m<No predictions>[0m               Actual: [33m<No labels>[0m
most                                    Predicted: [33m<No predictions>[0m               Actual: [33m<No labels>[0m
borderline                              Predicted: [33m<No predictions>[0m               Actual: [33m<No labels>[0m
not                                     Predicted: [33m<No predictions>[0m               Actual: [33m<No labels>[0m
-                                       Predicted: [33m<No predictions>[0m               Actual: [33m<No labels>[0m
sushi                                   Predicted: [33m<No predictions>[0m               Actual: [33m<No labels>[0m
sushi                                   Predicted: [33m<No predictions>[0m               Actual: [33m<No labels>[0m
in                                      Predicted: [33m<No predictions>[0m               Actual: [33m<No labels>[0m
the                                     Predicted: [33m<No predictions>[0m               Actual: [33m<No labels>[0m
world                                   Predicted: [33m<No predictions>[0m               Actual: [33m<No labels>[0m


2 / 21[32mINFO  [0m
Customers                               Predicted: [33m<No predictions>[0m               Actual: [33m<No labels>[0m
were                                    Predicted: [33m<No predictions>[0m               Actual: [33m<No labels>[0m
reporting                               Predicted: [33m<No predictions>[0m               Actual: [33m<No labels>[0m
upwards                                 Predicted: [33m<No predictions>[0m               Actual: [33m<No labels>[0m
of                                      Predicted: [33m<No predictions>[0m               Actual: [33m<No labels>[0m
three                                   Predicted: [33m<No predictions>[0m               Actual: [33m<No labels>[0m
hour                                    Predicted: [33m<No predictions>[0m               Actual: [33m<No labels>[0m
-                                       Predicted: [33m<No predictions>[0m               Actual: [33m<No labels>[0m
long                                    Predicted: [33m<No predictions>[0m               Actual: [33m<No labels>[0m
waits                                   Predicted: [33m<No predictions>[0m               Actual: [33m<No labels>[0m
at                                      Predicted: [31mrel/2[0m                          Actual: [33m<No labels>[0m
some                                    Predicted: [33m<No predictions>[0m               Actual: [33m<No labels>[0m
bakeries                                Predicted: [33m<No predictions>[0m               Actual: [33m<No labels>[0m
in                                      Predicted: [33m<No predictions>[0m               Actual: [33m<No labels>[0m
Hamtramck                               Predicted: [33m<No predictions>[0m               Actual: [33m<No labels>[0m
this                                    Predicted: [33m<No predictions>[0m               Actual: [33m<No labels>[0m
morning                                 Predicted: [33m<No predictions>[0m               Actual: [33m<No labels>[0m
as                                      Predicted: [33m<No predictions>[0m               Actual: [33m<No labels>[0m
patrons                                 Predicted: [33m<No predictions>[0m               Actual: [33m<No labels>[0m
from                                    Predicted: [33m<No predictions>[0m               Actual: [33m<No labels>[0m
from                                    Predicted: [33m<No predictions>[0m               Actual: [33m<No labels>[0m
across                                  Predicted: [33m<No predictions>[0m               Actual: [33m<No labels>[0m
the                                     Predicted: [33m<No predictions>[0m               Actual: [33m<No labels>[0m
region                                  Predicted: [33m<No predictions>[0m               Actual: [33m<No labels>[0m
gathered                                Predicted: [33m<No predictions>[0m               Actual: [33m<No labels>[0m
to                                      Predicted: [33m<No predictions>[0m               Actual: [33m<No labels>[0m
take                                    Predicted: [33m<No predictions>[0m               Actual: [33m<No labels>[0m
part                                    Predicted: [33m<No predictions>[0m               Actual: [33m<No labels>[0m
in                                      Predicted: [33m<No predictions>[0m               Actual: [33m<No labels>[0m
the                                     Predicted: [33m<No predictions>[0m               Actual: [33m<No labels>[0m
annual                                  Predicted: [33m<No predictions>[0m               Actual: [33m<No labels>[0m
Paczki                                  Predicted: [33m<No predictions>[0m               Actual: [33m<No labels>[0m
Day                                     Predicted: [33m<No predictions>[0m               Actual: [33m<No labels>[0m
tradition                               Predicted: [33m<No predictions>[0m               Actual: [33m<No labels>[0m
of                                      Predicted: [33m<No predictions>[0m               Actual: [33m<No labels>[0m
stand                                   Predicted: [33m<No predictions>[0m               Actual: [33m<No labels>[0m
and                                     Predicted: [33m<No predictions>[0m               Actual: [33m<No labels>[0m
wait                                    Predicted: [33m<No predictions>[0m               Actual: [33m<No labels>[0m


3 / 21[32mINFO  [0m
McDonald                                Predicted: [33m<No predictions>[0m               Actual: [33m<No labels>[0m
’                                       Predicted: [33m<No predictions>[0m               Actual: [33m<No labels>[0m
s                                       Predicted: [33m<No predictions>[0m               Actual: [33m<No labels>[0m
latest                                  Predicted: [33m<No predictions>[0m               Actual: [33m<No labels>[0m
endeavor                                Predicted: [33m<No predictions>[0m               Actual: [33m<No labels>[0m
may                                     Predicted: [33m<No predictions>[0m               Actual: [33m<No labels>[0m
come                                    Predicted: [33m<No predictions>[0m               Actual: [33m<No labels>[0m
as                                      Predicted: [33m<No predictions>[0m               Actual: [33m<No labels>[0m
a                                       Predicted: [33m<No predictions>[0m               Actual: [33m<No labels>[0m
bit                                     Predicted: [33m<No predictions>[0m               Actual: [33m<No labels>[0m
of                                      Predicted: [33m<No predictions>[0m               Actual: [33m<No labels>[0m
a                                       Predicted: [33m<No predictions>[0m               Actual: [33m<No labels>[0m
surprise                                Predicted: [33m<No predictions>[0m               Actual: [33m<No labels>[0m
:                                       Predicted: [33m<No predictions>[0m               Actual: [33m<No labels>[0m
McDonald                                Predicted: [33m<No predictions>[0m               Actual: [33m<No labels>[0m
’                                       Predicted: [33m<No predictions>[0m               Actual: [33m<No labels>[0m
s                                       Predicted: [33m<No predictions>[0m               Actual: [33m<No labels>[0m
is                                      Predicted: [33m<No predictions>[0m               Actual: [33m<No labels>[0m
pursuing                                Predicted: [33m<No predictions>[0m               Actual: [33m<No labels>[0m
sustainable                             Predicted: [33m<No predictions>[0m               Actual: [33m<No labels>[0m
beef                                    Predicted: [33m<No predictions>[0m               Actual: [33m<No labels>[0m


4 / 21[32mINFO  [0m
It                                      Predicted: [33m<No predictions>[0m               Actual: [33m<No labels>[0m
’                                       Predicted: [33m<No predictions>[0m               Actual: [33m<No labels>[0m
s                                       Predicted: [33m<No predictions>[0m               Actual: [33m<No labels>[0m
not                                     Predicted: [33m<No predictions>[0m               Actual: [33m<No labels>[0m
all                                     Predicted: [33m<No predictions>[0m               Actual: [33m<No labels>[0m
selfies                                 Predicted: [33m<No predictions>[0m               Actual: [33m<No labels>[0m
and                                     Predicted: [33m<No predictions>[0m               Actual: [33m<No labels>[0m
champagne                               Predicted: [33m<No predictions>[0m               Actual: [33m<No labels>[0m
showers                                 Predicted: [33m<No predictions>[0m               Actual: [33m<No labels>[0m
over                                    Predicted: [33m<No predictions>[0m               Actual: [33m<No labels>[0m
at                                      Predicted: [33m<No predictions>[0m               Actual: [33m<No labels>[0m
Noma                                    Predicted: [31mtail/1[0m                         Actual: [33m<No labels>[0m
,                                       Predicted: [33m<No predictions>[0m               Actual: [33m<No labels>[0m
the                                     Predicted: [33m<No predictions>[0m               Actual: [33m<No labels>[0m
acclaimed                               Predicted: [31mhead/3[0m                         Actual: [33m<No labels>[0m
Copenhagen                              Predicted: [31mhead/3[0m                         Actual: [33m<No labels>[0m
restaurant                              Predicted: [33m<No predictions>[0m               Actual: [33m<No labels>[0m
that                                    Predicted: [33m<No predictions>[0m               Actual: [33m<No labels>[0m
closed                                  Predicted: [33m<No predictions>[0m               Actual: [33m<No labels>[0m
the                                     Predicted: [33m<No predictions>[0m               Actual: [33m<No labels>[0m
doors                                   Predicted: [33m<No predictions>[0m               Actual: [33m<No labels>[0m
to                                      Predicted: [33m<No predictions>[0m               Actual: [33m<No labels>[0m
its                                     Predicted: [33m<No predictions>[0m               Actual: [33m<No labels>[0m
original                                Predicted: [33m<No predictions>[0m               Actual: [33m<No labels>[0m
location                                Predicted: [33m<No predictions>[0m               Actual: [33m<No labels>[0m
a                                       Predicted: [33m<No predictions>[0m               Actual: [33m<No labels>[0m
few                                     Predicted: [33m<No predictions>[0m               Actual: [33m<No labels>[0m
days                                    Predicted: [33m<No predictions>[0m               Actual: [33m<No labels>[0m
ago                                     Predicted: [33m<No predictions>[0m               Actual: [33m<No labels>[0m


5 / 21[32mINFO  [0m
A                                       Predicted: [33m<No predictions>[0m               Actual: [33m<No labels>[0m
financial                               Predicted: [33m<No predictions>[0m               Actual: [33m<No labels>[0m
analyst                                 Predicted: [33m<No predictions>[0m               Actual: [33m<No labels>[0m
told                                    Predicted: [33m<No predictions>[0m               Actual: [33m<No labels>[0m
Reuters                                 Predicted: [33m<No predictions>[0m               Actual: [33m<No labels>[0m
expansion                               Predicted: [33m<No predictions>[0m               Actual: [33m<No labels>[0m
to                                      Predicted: [33m<No predictions>[0m               Actual: [33m<No labels>[0m
the                                     Predicted: [33m<No predictions>[0m               Actual: [33m<No labels>[0m
U                                       Predicted: [33m<No predictions>[0m               Actual: [33m<No labels>[0m


6 / 21[32mINFO  [0m
The                                     Predicted: [33m<No predictions>[0m               Actual: [33m<No labels>[0m
AP                                      Predicted: [33m<No predictions>[0m               Actual: [33m<No labels>[0m
'                                       Predicted: [33m<No predictions>[0m               Actual: [33m<No labels>[0m
s                                       Predicted: [33m<No predictions>[0m               Actual: [33m<No labels>[0m
report                                  Predicted: [33m<No predictions>[0m               Actual: [33m<No labels>[0m
centers                                 Predicted: [33m<No predictions>[0m               Actual: [33m<No labels>[0m
on                                      Predicted: [33m<No predictions>[0m               Actual: [33m<No labels>[0m
a                                       Predicted: [33m<No predictions>[0m               Actual: [33m<No labels>[0m
popular                                 Predicted: [33m<No predictions>[0m               Actual: [33m<No labels>[0m
Iranian                                 Predicted: [31mhead/3[0m, [31mhead/4[0m, [31mhead/5[0m, [31mtail/1[0mActual: [33m<No labels>[0m
restaurant                              Predicted: [31mhead/3[0m, [31mhead/4[0m, [31mhead/5[0m, [31mtail/1[0mActual: [33m<No labels>[0m
chain                                   Predicted: [31mhead/3[0m, [31mhead/4[0m, [31mhead/5[0m, [31mtail/1[0mActual: [33m<No labels>[0m
,                                       Predicted: [33m<No predictions>[0m               Actual: [33m<No labels>[0m
Shayah                                  Predicted: [31mhead/4[0m, [31mhead/5[0m, [31mtail/1[0mActual: [33m<No labels>[0m
,                                       Predicted: [33m<No predictions>[0m               Actual: [33m<No labels>[0m
that                                    Predicted: [33m<No predictions>[0m               Actual: [33m<No labels>[0m
has                                     Predicted: [33m<No predictions>[0m               Actual: [33m<No labels>[0m
13                                      Predicted: [33m<No predictions>[0m               Actual: [33m<No labels>[0m
locations                               Predicted: [33m<No predictions>[0m               Actual: [33m<No labels>[0m
in                                      Predicted: [33m<No predictions>[0m               Actual: [33m<No labels>[0m
Saudi                                   Predicted: [33m<No predictions>[0m               Actual: [33m<No labels>[0m
Arabia                                  Predicted: [33m<No predictions>[0m               Actual: [33m<No labels>[0m
,                                       Predicted: [33m<No predictions>[0m               Actual: [33m<No labels>[0m
mostly                                  Predicted: [33m<No predictions>[0m               Actual: [33m<No labels>[0m
in                                      Predicted: [33m<No predictions>[0m               Actual: [33m<No labels>[0m
the                                     Predicted: [33m<No predictions>[0m               Actual: [33m<No labels>[0m
capital                                 Predicted: [33m<No predictions>[0m               Actual: [33m<No labels>[0m
city                                    Predicted: [33m<No predictions>[0m               Actual: [33m<No labels>[0m
of                                      Predicted: [33m<No predictions>[0m               Actual: [33m<No labels>[0m
Riyadh                                  Predicted: [33m<No predictions>[0m               Actual: [33m<No labels>[0m


7 / 21[32mINFO  [0m
Sam                                     Predicted: [33m<No predictions>[0m               Actual: [33m<No labels>[0m
Beall                                   Predicted: [31mhead/6[0m                         Actual: [33m<No labels>[0m
,                                       Predicted: [33m<No predictions>[0m               Actual: [33m<No labels>[0m
the                                     Predicted: [33m<No predictions>[0m               Actual: [33m<No labels>[0m
proprietor                              Predicted: [33m<No predictions>[0m               Actual: [33m<No labels>[0m
of                                      Predicted: [33m<No predictions>[0m               Actual: [33m<No labels>[0m
Blackberry                              Predicted: [31mhead/5[0m, [31mtail/1[0m        Actual: [33m<No labels>[0m
Farm                                    Predicted: [31mhead/5[0m, [31mtail/1[0m        Actual: [33m<No labels>[0m
in                                      Predicted: [31mrel/2[0m                          Actual: [33m<No labels>[0m
Walland                                 Predicted: [33m<No predictions>[0m               Actual: [33m<No labels>[0m
,                                       Predicted: [33m<No predictions>[0m               Actual: [33m<No labels>[0m
Tenn                                    Predicted: [33m<No predictions>[0m               Actual: [33m<No labels>[0m


8 / 21[32mINFO  [0m
Germany                                 Predicted: [33m<No predictions>[0m               Actual: [33m<No labels>[0m
has                                     Predicted: [33m<No predictions>[0m               Actual: [33m<No labels>[0m
long                                    Predicted: [33m<No predictions>[0m               Actual: [33m<No labels>[0m
taken                                   Predicted: [33m<No predictions>[0m               Actual: [33m<No labels>[0m
pride                                   Predicted: [33m<No predictions>[0m               Actual: [33m<No labels>[0m
in                                      Predicted: [31mrel/2[0m                          Actual: [33m<No labels>[0m
Germany                                 Predicted: [31mtail/1[0m                         Actual: [33m<No labels>[0m
beer                                    Predicted: [31mtail/1[0m                         Actual: [33m<No labels>[0m
industry                                Predicted: [31mtail/1[0m                         Actual: [33m<No labels>[0m
,                                       Predicted: [33m<No predictions>[0m               Actual: [33m<No labels>[0m
boasting                                Predicted: [33m<No predictions>[0m               Actual: [33m<No labels>[0m
a                                       Predicted: [33m<No predictions>[0m               Actual: [33m<No labels>[0m
500                                     Predicted: [33m<No predictions>[0m               Actual: [33m<No labels>[0m
-                                       Predicted: [33m<No predictions>[0m               Actual: [33m<No labels>[0m
year                                    Predicted: [33m<No predictions>[0m               Actual: [33m<No labels>[0m
-                                       Predicted: [33m<No predictions>[0m               Actual: [33m<No labels>[0m
old                                     Predicted: [33m<No predictions>[0m               Actual: [33m<No labels>[0m
purity                                  Predicted: [33m<No predictions>[0m               Actual: [33m<No labels>[0m
law                                     Predicted: [31mhead/3[0m                         Actual: [33m<No labels>[0m
that                                    Predicted: [33m<No predictions>[0m               Actual: [33m<No labels>[0m
regulates                               Predicted: [33m<No predictions>[0m               Actual: [33m<No labels>[0m
what                                    Predicted: [33m<No predictions>[0m               Actual: [33m<No labels>[0m
can                                     Predicted: [33m<No predictions>[0m               Actual: [33m<No labels>[0m
and                                     Predicted: [33m<No predictions>[0m               Actual: [33m<No labels>[0m
ca                                      Predicted: [33m<No predictions>[0m               Actual: [33m<No labels>[0m
n                                       Predicted: [33m<No predictions>[0m               Actual: [33m<No labels>[0m
'                                       Predicted: [33m<No predictions>[0m               Actual: [33m<No labels>[0m
t                                       Predicted: [33m<No predictions>[0m               Actual: [33m<No labels>[0m
go                                      Predicted: [33m<No predictions>[0m               Actual: [33m<No labels>[0m
into                                    Predicted: [33m<No predictions>[0m               Actual: [33m<No labels>[0m
suds                                    Predicted: [33m<No predictions>[0m               Actual: [33m<No labels>[0m
produced                                Predicted: [33m<No predictions>[0m               Actual: [33m<No labels>[0m
in                                      Predicted: [33m<No predictions>[0m               Actual: [33m<No labels>[0m
Germany                                 Predicted: [33m<No predictions>[0m               Actual: [33m<No labels>[0m
But                                     Predicted: [33m<No predictions>[0m               Actual: [33m<No labels>[0m
it                                      Predicted: [33m<No predictions>[0m               Actual: [33m<No labels>[0m
appears                                 Predicted: [33m<No predictions>[0m               Actual: [33m<No labels>[0m
German                                  Predicted: [33m<No predictions>[0m               Actual: [33m<No labels>[0m
beer                                    Predicted: [33m<No predictions>[0m               Actual: [33m<No labels>[0m
might                                   Predicted: [33m<No predictions>[0m               Actual: [33m<No labels>[0m
not                                     Predicted: [33m<No predictions>[0m               Actual: [33m<No labels>[0m
be                                      Predicted: [33m<No predictions>[0m               Actual: [33m<No labels>[0m
as                                      Predicted: [33m<No predictions>[0m               Actual: [33m<No labels>[0m
pure                                    Predicted: [33m<No predictions>[0m               Actual: [33m<No labels>[0m
as                                      Predicted: [33m<No predictions>[0m               Actual: [33m<No labels>[0m
German                                  Predicted: [33m<No predictions>[0m               Actual: [33m<No labels>[0m
beer                                    Predicted: [33m<No predictions>[0m               Actual: [33m<No labels>[0m
seems                                   Predicted: [33m<No predictions>[0m               Actual: [33m<No labels>[0m


9 / 21[32mINFO  [0m
From                                    Predicted: [33m<No predictions>[0m               Actual: [33m<No labels>[0m
the                                     Predicted: [33m<No predictions>[0m               Actual: [33m<No labels>[0m
studios                                 Predicted: [33m<No predictions>[0m               Actual: [33m<No labels>[0m
of                                      Predicted: [33m<No predictions>[0m               Actual: [33m<No labels>[0m
WNYC                                    Predicted: [31mtail/1[0m                         Actual: [33m<No labels>[0m
,                                       Predicted: [33m<No predictions>[0m               Actual: [33m<No labels>[0m
Dan                                     Predicted: [33m<No predictions>[0m               Actual: [33m<No labels>[0m
Pashman                                 Predicted: [33m<No predictions>[0m               Actual: [33m<No labels>[0m
and                                     Predicted: [33m<No predictions>[0m               Actual: [33m<No labels>[0m
Anne                                    Predicted: [33m<No predictions>[0m               Actual: [33m<No labels>[0m
Noyes                                   Predicted: [31mhead/4[0m, [31mhead/5[0m        Actual: [33m<No labels>[0m
Saini                                   Predicted: [31mhead/4[0m                         Actual: [33m<No labels>[0m
produce                                 Predicted: [33m<No predictions>[0m               Actual: [33m<No labels>[0m
The                                     Predicted: [31mtail/1[0m, [31mtail/2[0m        Actual: [33m<No labels>[0m
Sporkful                                Predicted: [31mtail/2[0m                         Actual: [33m<No labels>[0m
,                                       Predicted: [33m<No predictions>[0m               Actual: [33m<No labels>[0m
which                                   Predicted: [33m<No predictions>[0m               Actual: [33m<No labels>[0m
,                                       Predicted: [33m<No predictions>[0m               Actual: [33m<No labels>[0m
put                                     Predicted: [33m<No predictions>[0m               Actual: [33m<No labels>[0m
simply                                  Predicted: [33m<No predictions>[0m               Actual: [33m<No labels>[0m
,                                       Predicted: [33m<No predictions>[0m               Actual: [33m<No labels>[0m
is                                      Predicted: [33m<No predictions>[0m               Actual: [33m<No labels>[0m
a                                       Predicted: [33m<No predictions>[0m               Actual: [33m<No labels>[0m
podcast                                 Predicted: [33m<No predictions>[0m               Actual: [33m<No labels>[0m
about                                   Predicted: [33m<No predictions>[0m               Actual: [33m<No labels>[0m
food                                    Predicted: [33m<No predictions>[0m               Actual: [33m<No labels>[0m


10 / 21[32mINFO  [0m
A                                       Predicted: [33m<No predictions>[0m               Actual: [33m<No labels>[0m
burglar                                 Predicted: [33m<No predictions>[0m               Actual: [33m<No labels>[0m
who                                     Predicted: [33m<No predictions>[0m               Actual: [33m<No labels>[0m
broke                                   Predicted: [33m<No predictions>[0m               Actual: [33m<No labels>[0m
into                                    Predicted: [31mrel/1[0m                          Actual: [33m<No labels>[0m
a                                       Predicted: [33m<No predictions>[0m               Actual: [33m<No labels>[0m
Tennessee                               Predicted: [31mtail/1[0m                         Actual: [33m<No labels>[0m
restaurant                              Predicted: [31mtail/2[0m                         Actual: [33m<No labels>[0m
over                                    Predicted: [33m<No predictions>[0m               Actual: [33m<No labels>[0m
the                                     Predicted: [33m<No predictions>[0m               Actual: [33m<No labels>[0m
weekend                                 Predicted: [33m<No predictions>[0m               Actual: [33m<No labels>[0m
left                                    Predicted: [33m<No predictions>[0m               Actual: [33m<No labels>[0m
empty                                   Predicted: [33m<No predictions>[0m               Actual: [33m<No labels>[0m
-                                       Predicted: [33m<No predictions>[0m               Actual: [33m<No labels>[0m
handed                                  Predicted: [33m<No predictions>[0m               Actual: [33m<No labels>[0m
,                                       Predicted: [33m<No predictions>[0m               Actual: [33m<No labels>[0m
but                                     Predicted: [33m<No predictions>[0m               Actual: [33m<No labels>[0m
at                                      Predicted: [33m<No predictions>[0m               Actual: [33m<No labels>[0m
least                                   Predicted: [33m<No predictions>[0m               Actual: [33m<No labels>[0m
they                                    Predicted: [33m<No predictions>[0m               Actual: [33m<No labels>[0m
got                                     Predicted: [33m<No predictions>[0m               Actual: [33m<No labels>[0m
their                                   Predicted: [33m<No predictions>[0m               Actual: [33m<No labels>[0m
thirst                                  Predicted: [33m<No predictions>[0m               Actual: [33m<No labels>[0m
quenched                                Predicted: [33m<No predictions>[0m               Actual: [33m<No labels>[0m


11 / 21[32mINFO  [0m
London                                  Predicted: [33m<No predictions>[0m               Actual: [33m<No labels>[0m
-                                       Predicted: [33m<No predictions>[0m               Actual: [33m<No labels>[0m
based                                   Predicted: [33m<No predictions>[0m               Actual: [33m<No labels>[0m
startup                                 Predicted: [33m<No predictions>[0m               Actual: [33m<No labels>[0m
and                                     Predicted: [33m<No predictions>[0m               Actual: [33m<No labels>[0m
major                                   Predicted: [33m<No predictions>[0m               Actual: [33m<No labels>[0m
food                                    Predicted: [33m<No predictions>[0m               Actual: [33m<No labels>[0m
delivery                                Predicted: [33m<No predictions>[0m               Actual: [33m<No labels>[0m
player                                  Predicted: [33m<No predictions>[0m               Actual: [33m<No labels>[0m
Deliveroo                               Predicted: [31mhead/4[0m                         Actual: [33m<No labels>[0m
just                                    Predicted: [33m<No predictions>[0m               Actual: [33m<No labels>[0m
launched                                Predicted: [33m<No predictions>[0m               Actual: [33m<No labels>[0m
an                                      Predicted: [33m<No predictions>[0m               Actual: [33m<No labels>[0m
intriguing                              Predicted: [33m<No predictions>[0m               Actual: [33m<No labels>[0m
new                                     Predicted: [33m<No predictions>[0m               Actual: [33m<No labels>[0m
initiative                              Predicted: [33m<No predictions>[0m               Actual: [33m<No labels>[0m
:                                       Predicted: [33m<No predictions>[0m               Actual: [33m<No labels>[0m
It                                      Predicted: [33m<No predictions>[0m               Actual: [33m<No labels>[0m
'                                       Predicted: [33m<No predictions>[0m               Actual: [33m<No labels>[0m
s                                       Predicted: [33m<No predictions>[0m               Actual: [33m<No labels>[0m
now                                     Predicted: [33m<No predictions>[0m               Actual: [33m<No labels>[0m
providing                               Predicted: [33m<No predictions>[0m               Actual: [33m<No labels>[0m
kitchen                                 Predicted: [33m<No predictions>[0m               Actual: [33m<No labels>[0m
space                                   Predicted: [33m<No predictions>[0m               Actual: [33m<No labels>[0m
for                                     Predicted: [33m<No predictions>[0m               Actual: [33m<No labels>[0m
its                                     Predicted: [33m<No predictions>[0m               Actual: [33m<No labels>[0m
restaurant                              Predicted: [33m<No predictions>[0m               Actual: [33m<No labels>[0m
partners                                Predicted: [33m<No predictions>[0m               Actual: [33m<No labels>[0m
in                                      Predicted: [33m<No predictions>[0m               Actual: [33m<No labels>[0m
an                                      Predicted: [33m<No predictions>[0m               Actual: [33m<No labels>[0m
effort                                  Predicted: [33m<No predictions>[0m               Actual: [33m<No labels>[0m
to                                      Predicted: [33m<No predictions>[0m               Actual: [33m<No labels>[0m
serve                                   Predicted: [33m<No predictions>[0m               Actual: [33m<No labels>[0m
more                                    Predicted: [33m<No predictions>[0m               Actual: [33m<No labels>[0m
customers                               Predicted: [33m<No predictions>[0m               Actual: [33m<No labels>[0m
,                                       Predicted: [33m<No predictions>[0m               Actual: [33m<No labels>[0m
reports                                 Predicted: [33m<No predictions>[0m               Actual: [33m<No labels>[0m
TechCrunch                              Predicted: [33m<No predictions>[0m               Actual: [33m<No labels>[0m


12 / 21[32mINFO  [0m
General                                 Predicted: [33m<No predictions>[0m               Actual: [33m<No labels>[0m
Mills                                   Predicted: [31mhead/1[0m                         Actual: [33m<No labels>[0m
has                                     Predicted: [33m<No predictions>[0m               Actual: [33m<No labels>[0m
issued                                  Predicted: [31mrel/1[0m                          Actual: [33m<No labels>[0m
a                                       Predicted: [33m<No predictions>[0m               Actual: [33m<No labels>[0m
major                                   Predicted: [33m<No predictions>[0m               Actual: [33m<No labels>[0m
recall                                  Predicted: [33m<No predictions>[0m               Actual: [33m<No labels>[0m
of                                      Predicted: [33m<No predictions>[0m               Actual: [33m<No labels>[0m
products                                Predicted: [33m<No predictions>[0m               Actual: [33m<No labels>[0m
sold                                    Predicted: [33m<No predictions>[0m               Actual: [33m<No labels>[0m
under                                   Predicted: [33m<No predictions>[0m               Actual: [33m<No labels>[0m
General                                 Predicted: [31mtail/2[0m                         Actual: [33m<No labels>[0m
Mills                                   Predicted: [33m<No predictions>[0m               Actual: [33m<No labels>[0m
Gold                                    Predicted: [31mtail/2[0m                         Actual: [33m<No labels>[0m
Medal                                   Predicted: [31mtail/2[0m                         Actual: [33m<No labels>[0m
Flour                                   Predicted: [31mtail/2[0m                         Actual: [33m<No labels>[0m
label                                   Predicted: [33m<No predictions>[0m               Actual: [33m<No labels>[0m


13 / 21[32mINFO  [0m
It                                      Predicted: [33m<No predictions>[0m               Actual: [33m<No labels>[0m
'                                       Predicted: [33m<No predictions>[0m               Actual: [33m<No labels>[0m
s                                       Predicted: [33m<No predictions>[0m               Actual: [33m<No labels>[0m
been                                    Predicted: [33m<No predictions>[0m               Actual: [33m<No labels>[0m
a                                       Predicted: [33m<No predictions>[0m               Actual: [33m<No labels>[0m
rough                                   Predicted: [33m<No predictions>[0m               Actual: [33m<No labels>[0m
few                                     Predicted: [33m<No predictions>[0m               Actual: [33m<No labels>[0m
months                                  Predicted: [33m<No predictions>[0m               Actual: [33m<No labels>[0m
for                                     Predicted: [33m<No predictions>[0m               Actual: [33m<No labels>[0m
Chipotle                                Predicted: [31mhead/3[0m                         Actual: [33m<No labels>[0m


14 / 21[32mINFO  [0m
Christine                               Predicted: [31mhead/3[0m                         Actual: [33m<No labels>[0m
Flynn                                   Predicted: [33m<No predictions>[0m               Actual: [33m<No labels>[0m
—                                       Predicted: [31mrel/1[0m                          Actual: [33m<No labels>[0m
Executive                               Predicted: [31mhead/3[0m                         Actual: [33m<No labels>[0m
Chef                                    Predicted: [31mhead/3[0m                         Actual: [33m<No labels>[0m
at                                      Predicted: [31mrel/1[0m                          Actual: [33m<No labels>[0m
Toronto                                 Predicted: [31mtail/1[0m                         Actual: [33m<No labels>[0m
'                                       Predicted: [31mtail/1[0m                         Actual: [33m<No labels>[0m
s                                       Predicted: [31mtail/2[0m                         Actual: [33m<No labels>[0m
iQ                                      Predicted: [31mhead/5[0m                         Actual: [33m<No labels>[0m
Food                                    Predicted: [31mhead/5[0m                         Actual: [33m<No labels>[0m
Co                                      Predicted: [31mhead/5[0m                         Actual: [33m<No labels>[0m


15 / 21[32mINFO  [0m
In                                      Predicted: [33m<No predictions>[0m               Actual: [33m<No labels>[0m
the                                     Predicted: [33m<No predictions>[0m               Actual: [33m<No labels>[0m
dreary                                  Predicted: [33m<No predictions>[0m               Actual: [33m<No labels>[0m
,                                       Predicted: [33m<No predictions>[0m               Actual: [33m<No labels>[0m
dystopian                               Predicted: [33m<No predictions>[0m               Actual: [33m<No labels>[0m
future                                  Predicted: [33m<No predictions>[0m               Actual: [33m<No labels>[0m
when                                    Predicted: [33m<No predictions>[0m               Actual: [33m<No labels>[0m
brands                                  Predicted: [33m<No predictions>[0m               Actual: [33m<No labels>[0m
rule                                    Predicted: [33m<No predictions>[0m               Actual: [33m<No labels>[0m
the                                     Predicted: [33m<No predictions>[0m               Actual: [33m<No labels>[0m
world                                   Predicted: [33m<No predictions>[0m               Actual: [33m<No labels>[0m
,                                       Predicted: [33m<No predictions>[0m               Actual: [33m<No labels>[0m
the                                     Predicted: [33m<No predictions>[0m               Actual: [33m<No labels>[0m
best                                    Predicted: [33m<No predictions>[0m               Actual: [33m<No labels>[0m
restaurant                              Predicted: [33m<No predictions>[0m               Actual: [33m<No labels>[0m
in                                      Predicted: [31mrel/1[0m, [31mrel/2[0m          Actual: [33m<No labels>[0m
America                                 Predicted: [33m<No predictions>[0m               Actual: [33m<No labels>[0m
'                                       Predicted: [33m<No predictions>[0m               Actual: [33m<No labels>[0m
s                                       Predicted: [33m<No predictions>[0m               Actual: [33m<No labels>[0m
dining                                  Predicted: [33m<No predictions>[0m               Actual: [33m<No labels>[0m
capital                                 Predicted: [31mtail/2[0m                         Actual: [33m<No labels>[0m
of                                      Predicted: [33m<No predictions>[0m               Actual: [33m<No labels>[0m
New                                     Predicted: [31mtail/2[0m                         Actual: [33m<No labels>[0m
York                                    Predicted: [31mtail/2[0m                         Actual: [33m<No labels>[0m
City                                    Predicted: [31mtail/2[0m                         Actual: [33m<No labels>[0m
might                                   Predicted: [33m<No predictions>[0m               Actual: [33m<No labels>[0m
be                                      Predicted: [33m<No predictions>[0m               Actual: [33m<No labels>[0m
run                                     Predicted: [33m<No predictions>[0m               Actual: [33m<No labels>[0m
by                                      Predicted: [33m<No predictions>[0m               Actual: [33m<No labels>[0m
PepsiCo                                 Predicted: [33m<No predictions>[0m               Actual: [33m<No labels>[0m


16 / 21[32mINFO  [0m
Levi                                    Predicted: [31mhead/1[0m, [31mhead/3[0m        Actual: [33m<No labels>[0m
'                                       Predicted: [31mhead/1[0m, [31mhead/2[0m, [31mhead/3[0mActual: [33m<No labels>[0m
s                                       Predicted: [31mhead/1[0m, [31mhead/2[0m, [31mhead/3[0mActual: [33m<No labels>[0m
Stadium                                 Predicted: [31mhead/3[0m                         Actual: [33m<No labels>[0m
in                                      Predicted: [31mrel/1[0m, [31mrel/2[0m          Actual: [33m<No labels>[0m
Santa                                   Predicted: [33m<No predictions>[0m               Actual: [33m<No labels>[0m
Clara                                   Predicted: [31mtail/1[0m                         Actual: [33m<No labels>[0m
,                                       Predicted: [33m<No predictions>[0m               Actual: [33m<No labels>[0m
Calif                                   Predicted: [33m<No predictions>[0m               Actual: [33m<No labels>[0m


17 / 21[32mINFO  [0m
Having                                  Predicted: [33m<No predictions>[0m               Actual: [33m<No labels>[0m
already                                 Predicted: [33m<No predictions>[0m               Actual: [33m<No labels>[0m
created                                 Predicted: [33m<No predictions>[0m               Actual: [33m<No labels>[0m
a                                       Predicted: [33m<No predictions>[0m               Actual: [33m<No labels>[0m
restaurant                              Predicted: [33m<No predictions>[0m               Actual: [33m<No labels>[0m
based                                   Predicted: [33m<No predictions>[0m               Actual: [33m<No labels>[0m
on                                      Predicted: [33m<No predictions>[0m               Actual: [33m<No labels>[0m
the                                     Predicted: [33m<No predictions>[0m               Actual: [33m<No labels>[0m
idea                                    Predicted: [33m<No predictions>[0m               Actual: [33m<No labels>[0m
that                                    Predicted: [33m<No predictions>[0m               Actual: [33m<No labels>[0m
people                                  Predicted: [33m<No predictions>[0m               Actual: [33m<No labels>[0m
love                                    Predicted: [33m<No predictions>[0m               Actual: [33m<No labels>[0m
hot                                     Predicted: [33m<No predictions>[0m               Actual: [33m<No labels>[0m
sauce                                   Predicted: [33m<No predictions>[0m               Actual: [33m<No labels>[0m
,                                       Predicted: [33m<No predictions>[0m               Actual: [33m<No labels>[0m
iconic                                  Predicted: [33m<No predictions>[0m               Actual: [33m<No labels>[0m
Louisiana                               Predicted: [33m<No predictions>[0m               Actual: [33m<No labels>[0m
brand                                   Predicted: [31mhead/3[0m                         Actual: [33m<No labels>[0m
Tabasco                                 Predicted: [31mhead/3[0m, [31mhead/4[0m        Actual: [33m<No labels>[0m
is                                      Predicted: [33m<No predictions>[0m               Actual: [33m<No labels>[0m
going                                   Predicted: [33m<No predictions>[0m               Actual: [33m<No labels>[0m
one                                     Predicted: [33m<No predictions>[0m               Actual: [33m<No labels>[0m
step                                    Predicted: [33m<No predictions>[0m               Actual: [33m<No labels>[0m
further                                 Predicted: [33m<No predictions>[0m               Actual: [33m<No labels>[0m


18 / 21[32mINFO  [0m
A                                       Predicted: [33m<No predictions>[0m               Actual: [33m<No labels>[0m
Philadelphia                            Predicted: [31mhead/3[0m                         Actual: [33m<No labels>[0m
-                                       Predicted: [33m<No predictions>[0m               Actual: [33m<No labels>[0m
based                                   Predicted: [33m<No predictions>[0m               Actual: [33m<No labels>[0m
food                                    Predicted: [33m<No predictions>[0m               Actual: [33m<No labels>[0m
testing                                 Predicted: [33m<No predictions>[0m               Actual: [33m<No labels>[0m
startup                                 Predicted: [33m<No predictions>[0m               Actual: [33m<No labels>[0m
has                                     Predicted: [33m<No predictions>[0m               Actual: [33m<No labels>[0m
developed                               Predicted: [33m<No predictions>[0m               Actual: [33m<No labels>[0m
a                                       Predicted: [33m<No predictions>[0m               Actual: [33m<No labels>[0m
new                                     Predicted: [33m<No predictions>[0m               Actual: [33m<No labels>[0m
technology                              Predicted: [33m<No predictions>[0m               Actual: [33m<No labels>[0m
called                                  Predicted: [33m<No predictions>[0m               Actual: [33m<No labels>[0m
Veriflow                                Predicted: [31mtail/1[0m                         Actual: [33m<No labels>[0m
to                                      Predicted: [33m<No predictions>[0m               Actual: [33m<No labels>[0m
detect                                  Predicted: [33m<No predictions>[0m               Actual: [33m<No labels>[0m
illness                                 Predicted: [33m<No predictions>[0m               Actual: [33m<No labels>[0m
-                                       Predicted: [33m<No predictions>[0m               Actual: [33m<No labels>[0m
causing                                 Predicted: [33m<No predictions>[0m               Actual: [33m<No labels>[0m
pathogens                               Predicted: [33m<No predictions>[0m               Actual: [33m<No labels>[0m
in                                      Predicted: [33m<No predictions>[0m               Actual: [33m<No labels>[0m
foods                                   Predicted: [33m<No predictions>[0m               Actual: [33m<No labels>[0m


19 / 21[32mINFO  [0m
Since                                   Predicted: [33m<No predictions>[0m               Actual: [33m<No labels>[0m
acclaimed                               Predicted: [31mrel/1[0m                          Actual: [33m<No labels>[0m
New                                     Predicted: [33m<No predictions>[0m               Actual: [33m<No labels>[0m
Nordic                                  Predicted: [33m<No predictions>[0m               Actual: [33m<No labels>[0m
pioneer                                 Predicted: [33m<No predictions>[0m               Actual: [33m<No labels>[0m
chef                                    Predicted: [33m<No predictions>[0m               Actual: [33m<No labels>[0m
Ren                                     Predicted: [33m<No predictions>[0m               Actual: [33m<No labels>[0m
é                                       Predicted: [33m<No predictions>[0m               Actual: [33m<No labels>[0m
Redzepi                                 Predicted: [33m<No predictions>[0m               Actual: [33m<No labels>[0m
announced                               Predicted: [33m<No predictions>[0m               Actual: [33m<No labels>[0m
he                                      Predicted: [33m<No predictions>[0m               Actual: [33m<No labels>[0m
would                                   Predicted: [33m<No predictions>[0m               Actual: [33m<No labels>[0m
be                                      Predicted: [33m<No predictions>[0m               Actual: [33m<No labels>[0m
taking                                  Predicted: [31mrel/2[0m                          Actual: [33m<No labels>[0m
his                                     Predicted: [33m<No predictions>[0m               Actual: [33m<No labels>[0m
Copenhagen                              Predicted: [31mtail/2[0m                         Actual: [33m<No labels>[0m
restaurant                              Predicted: [31mtail/2[0m                         Actual: [33m<No labels>[0m
,                                       Predicted: [33m<No predictions>[0m               Actual: [33m<No labels>[0m
Noma                                    Predicted: [33m<No predictions>[0m               Actual: [33m<No labels>[0m
,                                       Predicted: [33m<No predictions>[0m               Actual: [33m<No labels>[0m
on                                      Predicted: [33m<No predictions>[0m               Actual: [33m<No labels>[0m
the                                     Predicted: [33m<No predictions>[0m               Actual: [33m<No labels>[0m
road                                    Predicted: [33m<No predictions>[0m               Actual: [33m<No labels>[0m
for                                     Predicted: [33m<No predictions>[0m               Actual: [33m<No labels>[0m
a                                       Predicted: [33m<No predictions>[0m               Actual: [33m<No labels>[0m
10                                      Predicted: [33m<No predictions>[0m               Actual: [33m<No labels>[0m
-                                       Predicted: [33m<No predictions>[0m               Actual: [33m<No labels>[0m
week                                    Predicted: [33m<No predictions>[0m               Actual: [33m<No labels>[0m
pop                                     Predicted: [33m<No predictions>[0m               Actual: [33m<No labels>[0m
up                                      Predicted: [33m<No predictions>[0m               Actual: [33m<No labels>[0m
in                                      Predicted: [33m<No predictions>[0m               Actual: [33m<No labels>[0m
Australia                               Predicted: [31mtail/3[0m                         Actual: [33m<No labels>[0m
,                                       Predicted: [33m<No predictions>[0m               Actual: [33m<No labels>[0m
the                                     Predicted: [33m<No predictions>[0m               Actual: [33m<No labels>[0m
food                                    Predicted: [33m<No predictions>[0m               Actual: [33m<No labels>[0m
world                                   Predicted: [33m<No predictions>[0m               Actual: [33m<No labels>[0m
has                                     Predicted: [33m<No predictions>[0m               Actual: [33m<No labels>[0m
been                                    Predicted: [33m<No predictions>[0m               Actual: [33m<No labels>[0m
awaiting                                Predicted: [33m<No predictions>[0m               Actual: [33m<No labels>[0m
what                                    Predicted: [33m<No predictions>[0m               Actual: [33m<No labels>[0m
was                                     Predicted: [33m<No predictions>[0m               Actual: [33m<No labels>[0m
predicted                               Predicted: [33m<No predictions>[0m               Actual: [33m<No labels>[0m
to                                      Predicted: [33m<No predictions>[0m               Actual: [33m<No labels>[0m
be                                      Predicted: [33m<No predictions>[0m               Actual: [33m<No labels>[0m
a                                       Predicted: [33m<No predictions>[0m               Actual: [33m<No labels>[0m
cutting                                 Predicted: [33m<No predictions>[0m               Actual: [33m<No labels>[0m
-                                       Predicted: [33m<No predictions>[0m               Actual: [33m<No labels>[0m
edge                                    Predicted: [33m<No predictions>[0m               Actual: [33m<No labels>[0m
,                                       Predicted: [33m<No predictions>[0m               Actual: [33m<No labels>[0m
unique                                  Predicted: [33m<No predictions>[0m               Actual: [33m<No labels>[0m
,                                       Predicted: [33m<No predictions>[0m               Actual: [33m<No labels>[0m
and                                     Predicted: [33m<No predictions>[0m               Actual: [33m<No labels>[0m
—                                       Predicted: [33m<No predictions>[0m               Actual: [33m<No labels>[0m
of                                      Predicted: [33m<No predictions>[0m               Actual: [33m<No labels>[0m
course                                  Predicted: [33m<No predictions>[0m               Actual: [33m<No labels>[0m
—                                       Predicted: [33m<No predictions>[0m               Actual: [33m<No labels>[0m
hyperlocal                              Predicted: [33m<No predictions>[0m               Actual: [33m<No labels>[0m
menu                                    Predicted: [33m<No predictions>[0m               Actual: [33m<No labels>[0m


20 / 21[32mINFO  [0m
As                                      Predicted: [33m<No predictions>[0m               Actual: [33m<No labels>[0m
America                                 Predicted: [33m<No predictions>[0m               Actual: [33m<No labels>[0m
'                                       Predicted: [33m<No predictions>[0m               Actual: [33m<No labels>[0m
s                                       Predicted: [33m<No predictions>[0m               Actual: [33m<No labels>[0m
finest                                  Predicted: [33m<No predictions>[0m               Actual: [33m<No labels>[0m
presidential                            Predicted: [33m<No predictions>[0m               Actual: [33m<No labels>[0m
candidates                              Predicted: [33m<No predictions>[0m               Actual: [33m<No labels>[0m
criss                                   Predicted: [33m<No predictions>[0m               Actual: [33m<No labels>[0m
-                                       Predicted: [33m<No predictions>[0m               Actual: [33m<No labels>[0m
cross                                   Predicted: [33m<No predictions>[0m               Actual: [33m<No labels>[0m
America                                 Predicted: [33m<No predictions>[0m               Actual: [33m<No labels>[0m
'                                       Predicted: [33m<No predictions>[0m               Actual: [33m<No labels>[0m
s                                       Predicted: [33m<No predictions>[0m               Actual: [33m<No labels>[0m
,                                       Predicted: [33m<No predictions>[0m               Actual: [33m<No labels>[0m
one                                     Predicted: [33m<No predictions>[0m               Actual: [33m<No labels>[0m
side                                    Predicted: [33m<No predictions>[0m               Actual: [33m<No labels>[0m
is                                      Predicted: [33m<No predictions>[0m               Actual: [33m<No labels>[0m
talking                                 Predicted: [33m<No predictions>[0m               Actual: [33m<No labels>[0m
about                                   Predicted: [33m<No predictions>[0m               Actual: [33m<No labels>[0m
inclusion                               Predicted: [33m<No predictions>[0m               Actual: [33m<No labels>[0m
while                                   Predicted: [33m<No predictions>[0m               Actual: [33m<No labels>[0m
the                                     Predicted: [33m<No predictions>[0m               Actual: [33m<No labels>[0m
other                                   Predicted: [33m<No predictions>[0m               Actual: [33m<No labels>[0m
preaches                                Predicted: [33m<No predictions>[0m               Actual: [33m<No labels>[0m
a                                       Predicted: [33m<No predictions>[0m               Actual: [33m<No labels>[0m
message                                 Predicted: [33m<No predictions>[0m               Actual: [33m<No labels>[0m
of                                      Predicted: [33m<No predictions>[0m               Actual: [33m<No labels>[0m
exclusion                               Predicted: [33m<No predictions>[0m               Actual: [33m<No labels>[0m
,                                       Predicted: [33m<No predictions>[0m               Actual: [33m<No labels>[0m
and                                     Predicted: [33m<No predictions>[0m               Actual: [33m<No labels>[0m
ideas                                   Predicted: [33m<No predictions>[0m               Actual: [33m<No labels>[0m
of                                      Predicted: [33m<No predictions>[0m               Actual: [33m<No labels>[0m
acceptance                              Predicted: [33m<No predictions>[0m               Actual: [33m<No labels>[0m
and                                     Predicted: [33m<No predictions>[0m               Actual: [33m<No labels>[0m
discrimination                          Predicted: [33m<No predictions>[0m               Actual: [33m<No labels>[0m
are                                     Predicted: [33m<No predictions>[0m               Actual: [33m<No labels>[0m
playing                                 Predicted: [33m<No predictions>[0m               Actual: [33m<No labels>[0m
out                                     Predicted: [33m<No predictions>[0m               Actual: [33m<No labels>[0m
in                                      Predicted: [33m<No predictions>[0m               Actual: [33m<No labels>[0m
small                                   Predicted: [33m<No predictions>[0m               Actual: [33m<No labels>[0m
,                                       Predicted: [33m<No predictions>[0m               Actual: [33m<No labels>[0m
local                                   Predicted: [33m<No predictions>[0m               Actual: [33m<No labels>[0m
,                                       Predicted: [33m<No predictions>[0m               Actual: [33m<No labels>[0m
everyday                                Predicted: [33m<No predictions>[0m               Actual: [33m<No labels>[0m
ways                                    Predicted: [33m<No predictions>[0m               Actual: [33m<No labels>[0m



