index,s1,r,s2
0,Prologue,debuted,LA
0,central controller,known as,zFAS
0,Power,comes from,4
0,0 - liter twin - turbo,mated to,eight - speed transmission
0,hybrid setup,enables,677 hp
0,0 - 62 mph,comes in at,3
0,5 seconds,returns,30 mpg
1,Dahler Design & Technik,outfit,convertible
1,Dahler,gave,open - top
1,twin - turbo inline - six,from,365 hp
1,stainless - steel exhaust system,provides,throatier soundtrack
1,mods,include,20 / 21 inches front / rear
2,human error,is,of cars
2,smashed Alfa Romeo Giulia,found by,Autoblog Netherlands
2,Quadrifoglio,with,505 horsepower
2,twin - turbo real estate,forged in,Ferrari factory
2,Alfa,place involving,Alfa Romeo
2,Italian man,crashed,Alfa Romeo
3,Ford,launched,Expedition
3,Expedition,full,Explorer
3,chassis SUVs,were,body - on
3,Expedition,remains,true SUV
3,Explorer,switched,crossover
3,Explorer,based on,Volvo sedan platform
3,Expedition,rides on,F - 150
3,Expedition Platinum,powered by,twin - turbo 3
3,5 - liter EcoBoost,with,365 hp
4,iconic models,spawned,308 GTS
4,its,only building,ten
4,9 - liter V8 engine,lifted from,488 Spider
4,681 hp,through,seven - speed double - clutch transmission
4,488 Spider,achieved,0 - 62 mph
5,Porsche,released,Sher
6,Autonomous technology,hot topic in,car industry
6,Apple,investing in,Autonomous technology
6,Michigan,authorize,autonomous cars
6,law,in,2013
7,Amazon,released,trailer
7,trio,building,cars
7,cars,taking part in,green motorsport event
7,custom car challenges,some of the best episodes,Top Gear
7,episode,around,built eco - cars
8,Lamborghini,keeping,Huracan Superleggera light
8,Lamborghini,having another,Huracan “ Super Light
8,snow,pick,new
8,heavy camouflage,served,bull
8,center - locking bolts,replace,five - bolt wheels
8,Superleggera prototype,including,large rear wing
9,Bugatti Chiron,crashed into,ditch
9,McLaren,suffered,New Zealand
9,Zonda,was a,special edition
9,prestigious Pagani Zonda,dismembered,front - end
10,Los Angeles,is the,car capital
10,city limits,contain,3
10,6 million live,within,Greater Los Angeles Area
10,Alfa Romeo,show,Stelvio
10,Alfa Romeo,to,advertisement
10,Stelvio,intended,S
11,Bugatti,about to reveal,"new "" model"
12,six figures,s,supercar
12,super sedans,such as,BMW
12,super SUVs,such as,BMW X5 M
12,internal combustion,to,EV tech
12,BMW X5 M,will get,0 - 60 mph
12,2,thunderous,twin - turbo
13,sinkhole,swallowed,historic Corvettes
13,Corvette,moved to,GM ’ S Design
13,Corvette,restored by,General Motors
14,Brabus,of,tuning companies
14,turbocharged V8 engine,packs,engine
14,turbocharged V8 engine,pumps,"1 , 069 lb - ft of torque"
14,0 - liter,found in,Mercedes - AMG G65 AMG
14,Brabus,increased,5
14,0 liters,boring out,cylinders
14,standard turbos,replaced,larger compressor units
14,Brabus sport exhaust system,with,steel dual - side tailpipes
14,Widestar,can get,62 mph
14,0 seconds,limited to,a top speed
14,Brabus 850 G63 Widestart,at,Frankfurt Motor Show
15,Richard Petty,renowned for winning,NASCAR Championship seven
15,Richard Petty,donated,special - built 2015 Ford Mustang
15,Ford Mustang,features,customizations
15,Mustang,features,blue color combination
15,Richard Petty,complement,spoiler
15,Mustang,features,exterior
15,Roush,fitted,TVS 2300 Supercharger
15,Mecum Auctions,at,Auctions Dallas Auction
16,Continental Orange Porsche 918 Spyder,with,Weissach package
16,Weissach package,boosts,918
16,918 wheels,with,magnesium units
16,Porsche 918 Spyder,powered by,4
16,6 - liter V8 engine,produces,hybrid electric drive system
16,6 - liter V8 engine,produces,944 lb - feet of torque
16,car,capable,top speed
16,model,sale for,"150 , 000"
17,Dodge Viper,be phased out completely,2017
17,Carroll Shelby,consulted on,early
17,1993 Viper RT / 10,for,"35 , 000"
17,one,for,"29 , 000"
17,Dodge,gives,axe
17,Phase II Viper GTS,built from,1995 through 2002
17,two,were,blue
18,paper,in,aerodynamics
18,automotive engineers,were,airplane - throwing goofs
18,new model,feature,new aerodynamic technology
18,Yokohama,completed research on,type of technology
18,technology,involves,tire
18,automakers,for,extra mpg
18,sidewall fins,may take away from the aesthetics of,22 - inch rims
19,Max Siedentopf,is,Dutch artist
19,Siedentopf,modify,tuner
19,Max Siedentopf,uses,masking tape
19,Max Siedentopf,giving,custom - made supercar
19,hot hatch,with,cardboard wing
20,the future,waged by,automakers
20,hydrogen,off,electric
20,Toyota,struggles,hydrogen revolution happen
20,Tesla,flexes,charging infrastructure
21,Night Edition models,to debut at,Detroit Auto Show
21,radiator grille,has been lavished in,high - gloss black finish
21,20 - inch AMG multi - spoke light - alloy wheels,feature,high - sheen rim flange
21,rear aprons,adapted,AMG bodystyling
21,Night Edition ” badge,fitted,front wings
22,Engineering Explained,details,spiel
22,summer,with,melting points
22,Summer tires,have,rubber compound
22,summer tires,turn into,traction - free rock
22,winter tires,are,too soft
23,big reveals,at,Detroit Auto Show
23,car,in,North America
23,Ford,revealed,2017 GT
23,prototype,features,aggressive aerodynamics kit
24,Mitsubishi,closed Japanese,North American factory
24,company,called,Rivian Automotive
24,Rivian,invest,175
24,Rivian Automotive,founded in,2009
24,RJ Scaringe,graduate of,RPI
24,integrated portfolio,of,products and services
24,mission,redefine,traditional automotive economics
25,drew,using,series of boxes
25,box,for,hood of
25,Crayola masterpiece,to tack onto,front
25,Ford Taurus,of,mid 80 ’ s
25,consumers,longer afford to pay,boxier cars
25,Tesla,rounded,ultra low
26,BMW,s,M Division
26,Germany,s,Bimmer Today
26,BMW,s line of,xDrive vehicles
26,owners,wrapped in,AWD safety
26,Mercedes,did with,AMG
27,Aston Martin DB4 GT,catalogue from,1960 ’ s
27,Aston,building ‘ continuation ’ models of,legendary grand tourer
27,25,delivered until,Summer 2017
27,Aston,for,GT
27,GT Continuation,faithful to,1960 ’ s
27,GT,will,ultra - rare lightweight model
27,Aston,fitted,Continuation
28,Lamborghini,making,SUV
28,Urus,revealed,2012 Bejing Auto Show
28,0 - liter,generating,600 hp
28,Top Gear,s,Rowan
28,Lamborghini,lurking on,wrapping
28,Volkswagen family,design inspiration,Audi
29,autonomous car,strip away,cars
29,brands,set up,buyer
29,Cars,like,easy
29,Lexus,to skew,lofty comfort
30,Hellcat engine,powers,Dodge Charger
30,Jeep Wrangler,of,off - roaders money
30,Wrangler,with,6
30,707 - hp HEMI V8 engine,from,muscle cars
30,cost,of,Wrangler
30,Trailcat concept,happened for,"extra $ 5 , 895"
30,Trailcat,t going to go into,production
31,Lamborghini Aventador SV,going to be,limited edition thing
31,Lamborghini,planned to build,600 examples
31,Aventador SVs,sold,Geneva
31,Lamborghini Aventador SV,increased to,750 hp
31,Redline,up at,"8 , 500 rpm"
31,top speed,at,217 mph
32,Red,worth,"100 , 000"
32,police,responded to,hit and run report
32,thief,took off,parked taxi
32,police,between,man
32,thief,taken into,custody
33,Markus Storck,s,Q
33,badges,combine with,logos
33,Storck,seen from,Q team
34,Powered,by,new 5
34,2 - liter flat - plane - frank,expect,500 hp
34,Ford,announced,526 hp
35,Las Vegas,revealed,monster
35,American monster,have,15 - year
35,SP - 200 SIN,will,production run
35,0 - liter,will produce,1000 hp
35,SP - SIN,mated,8 - speed dual - clutch transmission
35,SIN,sprint,0 - 60
35,aluminum space frame,includes,intense splitter
35,rear,home to,clear engine cover
35,Jennarong Muengtaweepongsa,promises,production version
36,super sedan,to,BMW
36,Macao blue,powers,17 - inch turbine rims
36,inch turbine rims,boasts,hp
36,Imola Red,with,394 - hp 4
36,it,comes in,Frozen Silver Metallic
36,Power,from,Formula 1 - inspired 5
36,0 - liter,rated at,500 horses
37,Dodge,delivered,SRT Tomahawk
37,three trims,developed,Gran Turismo 6
37,Dodge,dubbed,variable - fin quad - stage pneumatic power unit
37,fin quad - stage pneumatic power unit,releases,compressed air
37,SRT Tomahawk,are,entry level S
37,S,drops,"1 , 007 horsepower"
37,GTS - R,has,curb
37,experimental X,good for,"2 , 590 horsepower"
37,SRT Tomahawk,will be available,download
38,Vehicles,opposed,SUVs
38,BMW,sell,second
38,2016,doesn ’ t look,tall wagon
38,front end,has,more prominent look
38,LED headlights,are,LED headlights
38,5 - inch display,enjoy,Dakota leather seats
38,Assistant Plus package,with,heads
38,Driving Assistant Plus package,with,Lane Departure Warning
39,PTL - 02 tank destroyer,crashes into,Porsche Cayman sports car
39,Porsche Cayman,emerged from,accident
39,Porsche,escaped without,scratch
39,accident,of,Congqing
39,tank destroyer,s,of turn signals
39,100 millimeter cannon,equipped,tanks
40,donor cars,range,Toyota MR2 Spyder
40,Pontiac Fiero,for,fake supercar transformation needs
40,10 replica Ferraris,re,fakes
41,Aston Martin,at,Martin Vantage
41,Aston Martin,added,carbon - fiber wide body kit
41,engine,spits,591 hp
41,100 planned units,weighs about,220 lbs
42,Batman,get,Batmobile
42,Tumbler wannabe,comes with,5
42,7 - liter,from,Corvette
42,Propane tanks,enable,rear
42,5 - inch Hoosier tires,at,front
42,features,include,LED headlights
42,GTR Motors,in,GTR
43,engineers,from,famed
43,drivetrain,consists of,1
43,5 - liter three,with,357 hp
43,engineers,testing,2
43,0 - liter four - banger,with,over 300 hp
44,Audi,presented,new
44,Audi,Preparing to fight,toughest luxury and performance vehicles
44,Audi Exclusive full,featuring,Havana Brown leather
45,Chevrolet,bringing,Corvette
45,GM,phasing,Europe
45,2015 Goodwood Festival of Speed,happen from,28
46,Patent,filed,Honda
46,renderings,similar,smaller body
46,design,has,design
47,Bugatti,carved out,most pristine vehicles
47,Bugatti,practically,work
47,Bugatti Veyron,has,engine
47,single engine,for,vehicles
47,Bugatti concept,is,concept
47,Bugatti concept,bear,Bugatti logo
47,yacht design,not directly commissioned by,Bugatti
48,Meo Constantini,named after,head of Bugatti factory race team
48,Deals on Wheels,with,Dubai dealer
48,9 million AED,or,2
48,Constantini,features,Type 35 Bugatti
48,interior,pays tribute to,Targa Florio route
48,Vitesse models,comes from,8
48,0 - liter quad - turbocharged W16 engine,rated at,"1 , 200 hp"
49,sucker,weighs,"5 , 000 lbs"
49,order,for,dealership
49,0 - liter twin - turbo,producing,621 hp
49,Rolls - Royces,known for,Rolls
51,McLaren,require,extra customization
51,McLaren,is,masterpiece
51,spotted,in,London
51,orange accent lines,add a,layer of extra detail
51,chrome rims,make,body color
52,it,has,six - figure price tag
52,it,worth,100
52,Dennis McCarthy,for,Fast and Furious
52,McCarthy,made for,The Fast and
52,Eleanor Mustang,from,Gone in 60 Seconds
52,Universal Pictures,will no longer sell,movie cars
53,Ford,has,accomplishment
53,Mustang,outselling the,Chevy Camaro
53,Mustangs,been moved,"56 , 571"
53,Chevy Camaro,total sales figures of,"33 , 982 units"
53,Dodge Challenger,in third with,"30 , 166 cars sold"
53,Ford,Winning,sales battles
53,Ford,introduced,new Mustang
53,Chevy Camaro,bowed at,Belle Isle
53,engine options,put,Mustang
53,new the Mustang buyers,are,millennials
54,new report,from,Autocar
54,EXP 10 Speed 6 concept,shown off at,Geneva motor show
54,Wolfgang Durheimer,can only choose,one
54,Bentley,still,small company
54,world,shortage of,two - seat luxury sports cars
55,Supercar tuning firms,want to watch,Supercar tuning firms
55,carbon - fiber packages,for,Bugatti
56,Ferrari 458 Speciale,wrecked on,Nurburgring
56,world,let out,a sigh
56,owner,of,458
56,repair bill,raise,"233 , 982"
56,The Dead Ferrari,made,video
56,"5 , 000 - plus people",see,day
56,Ferrari,for,month free of charge
56,people donate,to,project
56,party,at,Nurburgring
57,Ferruccio Lamborghini,ordered by,Lamborghini
57,engine,put into,Lamborghini production car
58,Hemi,make,Mopar cars
58,Mopar owners,expect,owners cars
58,Graveyard Carz,bring,fabrication
58,entire engine,contains,OEM parts
58,Graveyard Carz,premieres,Velocity
58,Carz,about,video
59,0 - liter four - pot,continuing,200 - hp punch
59,0 - liter four - pot,with,damping
59,Brembo brakes,housed in,18 - inch rims
59,body,upgraded with,under spoiler
59,300 units,from,"32 , 600"
60,Furious,debuted in,2001
60,Universal Studios,wants to keep the,franchise
61,old grandson,assumed,Porsche
61,chairman of,for,Volkswagen
61,Piech,resigned as,chairman
62,Corvette,s,yellow racing livery
62,R Edition,get,Performance Package
62,Performance Package,includes,Michelin Pilot Super Sport Cup 2 tires
62,hood,is,carbon fiber hood
63,China,filled with,custom cars
63,grandson,from,school
64,Chevy,planning,reveal
64,sales,rival,Ford Mustang
64,Chevy,continue outselling,Mustang
64,Camaro,more,Mustang
65,occupant,given,presidential limousine
65,vehicle,known as,The Beast
65,presidential limousine,can withstand,missile
65,presidential limousine,have,Cadillac emblems
65,Cadillac,going to have,next presidential limo
65,Ford,told,Detroit News
65,Continental Concept,turned into,The Beast : Part 2
66,Stig,remains on,top banner
66,contract,isn ’ t renewed by,the BBC
66,Top Gear,"continue , only with",new hosts
66,images,appears on,Top Gear Middle East
67,TV commercial,comes,someone
67,BMW,controversy over,commercial
67,and breakfast,with,crazy - looking woman
67,the National Council for Behavioral Health,wrote to,BMW
67,BMW,responded to,AdFreak
67,ad,intended to spoof,horror movie
67,ad,to run out of,BMW ad - buy rotation
68,Scion,launching the,FR - S
68,MX - 5 Miata Mazda,didn ’ t build,small rear seat
68,Scion,t,coupe fans
68,Scion,and,Subaru
69,RM,for,Racing Midship
69,0 - liter turbo,good for,296 horsepower
69,Veloster,n ' t designed for,straight - line speed
69,aluminum spaceframe,paired with,carbon - fiber body panels
69,Hyundai,hopes to save,Veloster
70,Dodge,offer,Corvette
70,aero kit,with,carbon fiber elements
70,Corvette,pumps out,650 hp
71,global,debut at,IAA Frankfurt Motor Show 2015
71,S model,wearing,aggressive body kit
71,car,powered by,AMG 4
71,0 - liter engine,will be offered in,of tuning
71,standard model,deliver,469 hp
71,S Coupe,pump out,ft
71,front end,identical to,sedan
71,standard model taillights,adds,quad exhaust pipes
72,Back to,on,Lexus Hoverboard
72,teaser video,s,fourth and
72,Lexus Hoverboard,used at,skate park
72,Lexus Hoverboard,catches,air
72,Ross McGouran,give,spin
72,Ross McGouran,was,Lexus Hoverboard tester
72,tech,behind,Lexus Hoverboard
72,Lexus Hoverboard,has,layers
72,insulated core,featuring,superconducting blocks
72,superconductor,causes,superconductor
72,Lexus Hoverboard,is,legit
72,automaker,selling in,comments
73,Mercedes - Benz,in,biturbo V12 engines
73,wild models,such as,gull
73,AMG,take,fuel economy
73,BMW,begun working with,hybrids
73,AMG,do,hybrid GT
73,torque boost,at,zero RPM
74,3 - liter,of,four seats
74,CR 25,predated,1974 Turin Motor Show
74,Pininfarina,designed,concept car
74,large,with,minimum drag coefficient
74,designers,managed,wind tunnel
74,Power,came courtesy of,Ferrari BB ’ s 4
74,vintage photos,showing off,CR 25
74,Camels,been a,then
75,price,creating,demand
75,costing,t,forever
75,prices,return to,months ago
75,import ban,lifted,2024
76,Fab Fours,with,constructed
76,Legend,appeared,Jay Leno ' s Garage
76,integrated grille,equipped,Grumper
76,design,of,Legend
77,Porsche Cayenne,launched back in,2002
77,Porsche,brought in,millions upon millions
77,Cayenne Turbo S,costs,"160 , 000"
77,SUVs,want,Bentley
77,SUVs,from,Royce
77,Aston Martin,planning a,crossover
77,luxury,are,supercar brands
78,Hennessey Performance,put it,sale
78,Jeremy Clarkson,s,s seat
78,Hennessey,tinkered with,VelociRaptor
78,Upgrades,include,2
78,9 - liter supercharger system,helps increase output to,626 hp
78,0 - 60 mph,happens in,5
78,features,include,fuel injector upgrade
78,features,include,to - water intercooler
79,Javier Oquendo Design,equipped,massive rear wing
79,Super GT Supra / FT - 1,ready to take on,Japanese racing
80,Ford Mustang,its,muscle car competition
80,Ford,plans,Chevrolet Camaro
80,enthusiasts,have,car
80,Australia,need of,American muscle car
