index,s1,r,s2
0,Prologue Piloted Driving Concept,debuted in,LA
0,central controller,known as,zFAS
0,Power,comes from,4
0,0,mated to,eight - speed transmission
0,eight - speed transmission,with,motor
0,hybrid setup,enables,677 hp
0,0 - 62 mph,comes in at,3
0,5 seconds,returns almost,30 mpg
1,Dahler Design & Technik,outfit,Design
1,Dahler,gave its,open - top
1,twin - turbo inline,lifts,365 hp
1,stainless - steel exhaust system,provides,throatier soundtrack
1,wheels,include,20 / 21 inches front / rear
2,human error,is,killer of cars
2,smashed Alfa Romeo Giulia,found by,Autoblog Netherlands
2,Quadrifoglio,with,2
2,9,forged in,Ferrari factory
2,Giulia,place,Romeo
3,Ford,launched,Expedition
3,Expedition,full,Explorer
3,the Expedition,remains,true SUV
3,Explorer,based on,Volvo sedan platform
3,Expedition,rides on,F
3,tester,powered by,twin - turbo 3
3,5 - liter EcoBoost,with,365 hp
3,option,option The,previous 5
4,limited,at,National Art Center
4,its,only building,ten
4,9 - liter V8 engine,lifted from,488 Spider
4,488 Spider,achieved,0 - 62 mph time
5,Porsche,mispronounced,ears bleed
5,Porsche,released,Sher
6,Autonomous technology,certainly a hot topic in,car industry
6,Autonomous,investing in,self
6,state of Michigan,authorize,autonomous cars
6,law,required,backup driver
6,Ford,green light to test,autonomous car market
7,Tour,of,Grand
7,Amazon,released,trailer
7,own cars,taking part,event
7,James May,s,custom job
7,entire episode,centering around,custom - built eco - cars
8,Lamborghini,keeping details about,Huracan Superleggera light
8,spy photographers,having another go in,Huracan
8,heavy camouflage,served,bull
8,center - locking bolts,replace,five - bolt wheels
8,Superleggera,including,large rear wing
9,Bugatti Chiron,crashed into,ditch
9,McLaren,suffered,New Zealand
9,Pagani Zonda,in,Japan
9,Zonda,was a,special edition
9,Yusaku Maezawa,delivered to,the online Japanese clothing
9,760 hp,s,760 range
9,Lewis Hamilton,s,Pagani Zonda
10,Los Angeles,is the,car capital of
10,city limits,contain,3
10,8 million people,while,people
10,6 million live,within,Greater Los Angeles Area
10,Alfa Romeo,show,Stelvio
10,Alfa Romeo,impressive,advertisement
10,Stelvio,intended as,S
11,Bugatti,about to reveal,"new "" model"
11,"new "" model",take,design trophy
12,super sedans,such as,BMW
12,super SUVs,such as,BMW X5 M
12,internal combustion,to,EV tech
12,BMW X5 M,get,0 - 60 mph
12,2,of,twin - turbo
12,rear falcon doors,on,Tesla Model X
13,General Motors,finished restoring,historic
13,1 millionth Corvette,get,"1 , 200"
13,1 millionth Corvette,moved to,GM ’ S Design
13,1 millionth Corvette,restored by,General Motors
14,insane,created,monster
14,turbocharged V8 engine,pumps out,838 hp
14,turbocharged V8 engine,pumps out,"1 , 069 lb - ft of torque"
14,bump,of,200 hp
14,0 - liter,found in,Mercedes - AMG G65 AMG
14,Brabus,increased,original 5
14,0 liters,boring out,the cylinders
14,standard turbos,replaced by,larger compressor units
14,Brabus sport exhaust system,with,stainless
14,Widestar,can get,62 mph
14,0 seconds,limited to,162 mph
14,Brabus 850 G63 Widestart,at,Frankfurt Motor Show
15,Richard Petty,renowned for winning,NASCAR Championship seven
15,2015 Ford Mustang,features,customizations
15,Mustang,features,blue color combination
15,Richard Petty,complement,spoiler
15,Mustang,features,performance parts
15,Mustang,with,Roush TVS 2300
15,Roush TVS 2300 Supercharger,with,cold - air intake
15,Mecum Auctions,at,Dallas Auction
16,Continental Orange Porsche 918 Spyder,with,package
16,Weissach package,boosts,curb
16,918 wheels,replacing,magnesium units
16,Porsche 918 Spyder,powered by,4
16,6 - liter V8 engine,combined with,hybrid electric drive system
16,model,on sale for,"150 , 000"
16,Ryan Antisdel,and,photos
17,Connor Avenue Assembly Plant,negotiations between,Fiat Chrysler
17,Dodge Viper,become,halo model
17,1993 Viper RT / 10,buy,"35 , 000"
17,one,for,"29 , 000"
17,Mileage,Well below,"50 , 000"
17,Dodge,s gives The,axe
17,Phase II Viper GTS,built from,1995 through 2002
17,two,were,blue
18,aerodynamics,thrown,performance
18,automotive engineers,were,airplane
18,new model,feature,new aerodynamic technology
18,Yokohama,completed research on,type of technology
18,technology,put into,production
18,technology,fighting for,extra mpg
18,sidewall fins,take away from the aesthetics of,22 - inch rims
19,Max Siedentopf,is,Dutch artist
19,Max Siedentopf,modify,tuner
19,Max Siedentopf,uses,masking tape
19,Max Siedentopf project,called,Slapdash Supercars
19,Max Siedentopf,Max,custom - made supercar
19,hot hatch,with,cardboard wing
20,war,waged by,fuel
20,Tesla,banking on,electricity to drive the wheels of cars
20,Toyota,on,gas
20,hydrogen,takes off,electric
20,US Department of Energy,in,12
20,Tesla,create,charging infrastructure
21,Night Edition models,Set to debut at,Detroit Auto Show
21,distinctive radiator grille,lavished in,high - gloss black finish
21,exclusive 20 - inch AMG multi - spoke light - alloy wheels,feature,high - sheen rim flange
21,inserts,coated in,high - gloss black
21,front,adapted from,AMG bodystyling
21,Night Edition ” badge,fitted to,the front wings
22,school,cool,snow
22,summer,of,melting points
22,Summer tires,have,rubber compound
22,summer tires,turn into,traction - free rock
22,winter tires,are,engineered
23,big reveals,at,Detroit Auto Show
23,Detroit Auto Show,opens,press
23,American automakers,n ' t be,Detroit Auto Show
23,Ford,revealed,2017 GT
23,prototype,features,aggressive aerodynamics kit
24,Mitsubishi,closed Japanese,North American factory
24,Rivian,plans,175 million
24,Rivian Automotive,founded in,2009
24,RJ Scaringe,graduate of,RPI
24,company,developing,integrated portfolio
24,company,says,autonomous or sustainable drivetrain technology
25,drew,using,series
25,long box,for,hood
25,Crayola masterpiece,for,fridge
25,Ford Taurus,of,mid 80 ’ s
25,consumers,longer afford,ownership
26,BMW,s,M Division
26,Germany,s,Bimmer Today
26,BMW,s line,xDrive vehicles
26,owners,of,AWD safety
26,Mercedes,did with the,AMG
27,Aston Martin DB4 GT,from,1960 ’ s
27,Aston,building ‘ continuation,grand tourer
27,25,being,built
27,Christmas,delivered,Summer 2017
27,GT Continuation,remains faithful to,1960 ’ s
27,GT Continuation,be based on,ultra - rare lightweight model
27,Aston ’ s,fitted,GT Continuation
28,Lamborghini,making,SUV
28,Urus,revealed,2012 Bejing Auto Show
28,0 - liter,generating,600 hp
28,Top Gear,s,Rowan Horncastle
28,SUV,parked at,airport
28,Volkswagen family,design inspiration,Audi
29,autonomous car,strip away,jobs
29,out,during,transition
29,brands,set up an,entire identity
29,Cars,like the,Honda Accord
29,Jetta,tends to skew,lofty comfort
30,Hellcat engine,powers,Dodge Charger
30,Jeep Wrangler,of,roaders
30,Wrangler,fitting,6
30,707 - hp HEMI V8 engine,from,muscle cars
30,Trailcat concept,happened for,"extra $ 5 , 895"
30,auto shop,may no longer pass,state emissions tests
31,Lamborghini Aventador SV,going to be,limited edition thing
31,Lamborghini,planned to build,600 examples
31,Aventador SVs,at,Geneva
31,Lamborghini,offered,200 units
31,Lamborghini Aventador SV,increased to,750 hp
31,Redline,up at,"8 , 500 rpm"
31,8 seconds,at,217 mph
31,Aventador SV,cost,"500 , 000"
32,Frozen Red,worth about,"100 , 000"
32,he,ram,a side window
32,police,responded to,report
32,thief,smashed,parked taxi
32,police,responded,man
32,thief,taken,custody
32,family,owns,San Francisco BMW dealer
33,exclusive exterior finish,interwoven,carbon fiber
33,seats,combine with,logos
33,Storck,seen from,detail
34,2 - liter flat - plane - frank,said to expect,output
34,Ford,announced,526 hp
34,Camaro Z / 28,versions have,additional 21 hp
34,price,of,"47 , 870"
34,America,Only in,America
35,0 - liter,will produce,1000 hp
35,SP - SIN,mated to,8
35,aluminum,includes,intense splitter
35,rear,home to,clear engine cover
35,Jennarong,promises,production version
36,super sedan,built up,BMW
36,authentic,was,fastest sedan
36,authentic,comes with,"176 , 000 miles"
36,pair,built,sedans
36,Macao blue metallic model,complete with,17 - inch turbine rims
36,two,are,Imola Red
36,Imola Red,with,394 - hp 4
36,it,comes in,Frozen Silver Metallic
36,Power,from,Formula 1 - inspired 5
36,0 - liter,rated at,500 horses
37,Dodge,teased,Dodge Vision Gran Turismo concept car
37,Dodge,delivered,SRT Tomahawk
37,three trims,developed,Gran Turismo 6
37,SRT Tomahawk,sport,2035
37,variable - fin quad - stage pneumatic power unit,releases,compressed air
37,compressed air,used,activate aerodynamic panels
37,aerodynamic panels,assist,braking
37,SRT Tomahawk,are,entry level S
37,entry level S,drops,"1 , 007 horsepower"
37,GTS - R,has,curb
37,experimental X,good for,"2 , 590 horsepower"
37,SRT Tomahawk,be available for,download
38,BMW,calls them,Sports Activity Vehicles
38,Vehicles,opposed,crossovers
38,BMW,sell,second
38,front end,has,prominent look
38,LED headlights,are,touch
38,aerodynamic,Opt,package
38,interior The interior,is,solid improvement
38,5 - inch display,will enjoy optional,Dakota leather seats
38,Driving Assistant Plus package,with,heads
38,Driving Assistant Plus package,with,Lane Departure Warning
39,PTL - 02 tank destroyer,accidentally crashes into,yellow Porsche Cayman sports car
39,passengers,escaped without,scratch
39,tank destroyer,barreling straight into the side,Cayman
39,tank destroyer,s,of turn signals
39,millimeter cannon,used,tanks
40,replica,seen,"aka fake , Ferraris"
40,ballsy,suck,them around
40,Pontiac Fiero,for,supercar
40,10 replica Ferraris,re,fakes
41,Aston Martin,at,Geneva
41,Vantage,at,tuned V12 - engined supercar
41,Aston Martin,added,carbon - fiber wide body kit
41,engine,spits out,591 hp
41,engine,spits,460 lb - ft of torque
41,100 planned units,weighs about,220 lbs
42,Batman,get yourself a,Batmobile
42,Caped Crusader,drove is up for,sale
42,Tumbler wannabe,Priced,1
42,7 - liter,from,Corvette
42,Propane tanks,enable,flames
42,5 - inch Hoosier tires,at,front
42,features,include,LED headlights
42,GTR Motors,sale,Dubai - based
43,BMW,sale,2014
43,engineers,from,carbon fiber structure
43,it,can handle,additional 300 hp
43,drivetrain,consists of,1
43,electric motor,with,420 lb - ft of torque
43,engineers,testing,2
43,0 - liter four - banger,with,300 hp
43,car,feature,unpainted carbon - fiber body panels
43,BMW,has,A
44,Audi,fight,Audi
44,Audi Exclusive full leather package,featuring,Havana Brown leather
44,Audi Exclusive,featuring,Piano Black finish
44,car,on display at,Audi Forum Neckarsulm
45,Goodwood Festival of Speed,in,England
45,Chevrolet,bringing,Corvette
45,GM,phasing,Europe
45,2015 Goodwood Festival of Speed,happen from,28
46,The,discontinued in,2009
46,Honda,filed,US Patent office
46,renderings,similar to,smaller body
46,new S2000 design,actually be,NSX
46,design,has,modern styling
47,Bugatti,carved out,most pristine vehicles in
47,finished Bugatti,is practically a,work of art
47,Bugatti Veyron,has,engine
47,single engine,for,masterpiece
47,latest Bugatti concept,bear the,Bugatti logo
47,yacht design,not directly commissioned by,Bugatti
48,Bugatti,launched,six
48,Meo Constantini,named after,head of Bugatti factory race team
48,Deals on Wheels,for,9
48,9 million,or,AED
48,Targa Florio,located on,Type 35
48,interior,pays tribute to,leather trim
48,Vitesse models,comes from,8
48,0 - liter quad - turbocharged W16 engine,rated at,"1 , 200 hp"
49,sucker,weighs,"5 , 000 lbs"
49,0 - liter twin - turbo,producing,621 hp
49,Lieberman,s,Jonny
50,Motorcyclist,knocked off,Motorcyclist
50,Samuel Ayres,knocked off,concussion
50,Motorcyclist,knock,Samuel Ayres
51,McLaren,is,hot hypercar
51,chrome - wrapped P1 spotted,in,London
51,orange accent lines,add,layer of extra detail
52,it,has,six - figure price tag
52,seller,worth,"100 , 000"
52,McCarthy,for,Furious
52,McCarthy,calls,career
52,Eleanor Mustang,from,Gone in 60 Seconds
52,Universal Pictures,will no longer sell,movie cars
53,Mustang,outselling,Chevy Camaro
53,Detroit News,been,"56 , 571"
53,Chevy Camaro,total,sales figures
53,Dodge Challenger,come in third with,"30 , 166 cars sold"
53,Ford,Winning,sales
53,Ford,introduced,new Mustang
53,Chevy Camaro,recently bowed at,Belle Isle
53,Dodge Challenger,steal,Hellcat
53,surprising,are,engine options
53,new the Mustang buyers,are,millennials
54,Bentley,adding,Bentayga
54,EXP 10 Speed 6 concept,shown off at,Geneva motor show
54,Bentayga SUV,think,Porsche Macan
54,Wolfgang Durheimer,boss,one
54,Bentley,still a,small company
54,Wolfgang Durheimer,boss,EXP 10 Speed
54,world,has,two - seat luxury sports cars
55,Supercar,want to watch,Supercar
55,Vitesse,offer,carbon - fiber packages
55,carbon - fiber packages,for,Bugatti Veyron
56,Ferrari 458 Speciale,wrecked on,Nurburgring
56,the world,let out,a sigh
56,owner,of,wrecked 458
56,repair bill,to,"233 , 982"
56,team,made,video
56,"5 , 000 - plus people",see your,photo
56,repaired Ferrari,for,month
56,"50 , 000 people",donate to,project
56,donors,at,Nurburgring
57,Riva Aquarama,ordered by,founder
57,original Aquarama,powered by,two
58,Hemi engines,from,Mopar cars
58,Mopar owners,expect,owners cars
58,Mark Worman,from,Graveyard Carz
58,entire engine,contains,OEM parts and
58,Graveyard Carz,premieres,Velocity
58,Velocity,re - airing,five episodes
58,Graveyard Carz,about,video
59,Subaru Tecnica International,Unveiled,Japan
59,0 - liter four - pot,continuing to pack,200 - hp punch
59,0 - liter four,come with,damping
59,Brembo brakes,housed in,18 - inch rims
59,Brembo,for,specially - tuned Vehicle Dynamics Control
59,body,boasts,speedometer
59,300 units,priced from,"32 , 600"
60,Fast,debuted in,2001
60,Supercharged,a,Universal Studios Hollywood
61,Winterkorn,control,51 percent of Volkswagen
61,Piech,resigned as,chairman
61,Volkswagen,attempted,double
61,Piech,trust in,Martin Winterkorn
62,R Edition,get the,Performance Package
62,Performance Package,includes,Michelin Pilot Super Sport Cup 2 tires
62,Performance Package,includes,carbon ceramic brakes
63,China,filled with,bizarre custom cars
63,China,make,craftsmen
63,massive,and,five
64,sales,rival,Ford Mustang
64,Chevy,continue outselling,Mustang
64,Reuss,Speaking,New York Auto Show
64,Camaro,more,Mustang
65,next US president,be,Hillary Clinton
65,the Oval Office,given,new presidential limousine
65,vehicle,known as,The Beast
65,"10 , 000 pound vehicle",with,"five - inch thick , bullet - proof protective armor"
65,new presidential limousine,can withstand,missile
65,presidential limousine,withstand,chemical weapons attack
65,new presidential limousine,have,Cadillac emblems
65,Cadillac,won ’ t,presidential limo
65,Ford CEO Mark Fields,told,The Detroit News
65,Continental Concept,turned into,The Beast : Part 2
66,The Stig,remains on,top banner
66,host ’ s contract,isn ’ t renewed by,the BBC
66,Top Gear,continue,new hosts
66,images,appears on,Top Gear Middle East
67,TV commercial,comes,someone
67,BMW,controversy,commercial
67,and breakfast,turns,crazy - looking woman
67,CEO of the National Council for Behavioral Health,wrote to,BMW
67,BMW,responded to,AdFreak
67,ad,intended to spoof,horror movie
67,ad,run out of,BMW ad - buy rotation
67,BMW,go,sensitive
68,Scion,launching,FR - S
68,Subaru,launching,BRZ twins
68,Chevrolet,with,Code
68,Nissan,with,IDx
69,RM,off,Racing Midship
69,Both,pack,2
69,0 - liter turbo,good for,296 horsepower
69,Veloster,t designed for,60 sprint
69,To,designed,carbon - fiber body panels
69,Hyundai,featured,press release
69,Hyundai,hopes,Veloster
70,Dodge,offer,Corvette
70,645 hp,Try,600 lb - ft
70,aero kit,with,carbon fiber elements
70,Corvette,pumps out,650 hp
71,global,debut at,IAA Frankfurt Motor Show 2015
71,spec S model,wearing,aggressive body kit
71,car,powered by,AMG
71,0 - liter engine,be offered in,tuning
71,standard model,deliver,469 hp
71,the front end,identical to,large intakes
71,rear,retains,quad exhaust pipes
72,Back to,keeping an eye on,Lexus Hoverboard
72,teaser video,s,fourth
72,teaser video,shows,skate park
72,Lexus Hoverboard,catches,air
72,flip,are,flip
72,Ross McGouran,give,spin
72,Ross McGouran,was the,Lexus Hoverboard tester
72,tech,behind,Lexus Hoverboard
72,Lexus Hoverboard,has,layers
72,insulated core,featuring,high temperature superconducting blocks
72,high temperature superconducting blocks,put inside reservoirs of,liquid nitrogen
72,level,sits,magnets
72,superconductor,causes,superconductor
72,The automaker,selling in,comments
73,wild models,such as,gull
73,time AMG,take,fuel economy
73,BMW,begun working with,hybrids
73,torque boost,at,zero RPM
74,3 - liter,of,four seats
74,CR 25,predated,1974 Turin Motor Show
74,"large , front - engined four - seater",with,minimum drag coefficient
74,designers,managed,wind tunnel
74,Power,came courtesy of,Ferrari BB ’ s 4
74,vintage photos,showing off,CR 25
75,20,from,000
75,import ban,will be lifted in,2024
76,Woah,built by,Fab Fours
76,Legend 2,appeared,"Fab Fours "" Legend"
76,tires,features,Baja Claw
76,integrated grille and bumper,gives,Grumper
76,GM,comes courtesy,480 hp
76,Legend 2,worthy of,engine
77,Porsche Cayenne,launched back,2002
77,loaded Cayenne Turbo S,costs at,"160 , 000"
77,Aston Martin,planning a,crossover
77,mainstream automakers,raking in,crossovers
77,luxury,focusing on,cars
77,SUVs / CUVs,bring,dough
78,Jeremy Clarkson,host,Top Gear
78,Jeremy Clarkson,host,Amazon Prime
78,Hennessey Performance,put it up,sale
78,Hennessey,tinkered,VelociRaptor
78,Upgrades,include,2
78,9 - liter supercharger system,helps increase output,626 hp
78,0 - 60 mph,happens in,5
78,features,include,numbered dash
78,features,include,air induction
79,Supra,cousin,Honda / Acura NSX
79,Javier Oquendo Design,dressed,FT - 1
79,Javier Oquendo Design,equipped,massive rear wing
79,Javier,with,flared wheel arches
79,Super GT Supra / FT - 1,ready to take on,Japanese
80,muscle car segment,about to be owned by,Mustang
80,Australia,need,bottom
