evaluator.py 中的eseed为: 127

Industry: automotiveEngineering
===
/home/studio-lab-user/.conda/envs/seq2kg/lib/python3.6/site-packages/bert_serving/client/__init__.py:299: UserWarning: some of your sentences have more tokens than "max_seq_len=10" set on the server, as consequence you may get less-accurate or truncated embeddings.
here is what you can do:
- disable the length-check by create a new "BertClient(check_length=False)" when you do not want to display this warning
- or, start a new server with a larger "max_seq_len"
  '- or, start a new server with a larger "max_seq_len"' % self.length_limit)
  Model: end_to_end_model	0 / 81  Model: end_to_end_model	1 / 81  Model: end_to_end_model	2 / 81  Model: end_to_end_model	3 / 81  Model: end_to_end_model	4 / 81  Model: end_to_end_model	5 / 81  Model: end_to_end_model	6 / 81  Model: end_to_end_model	7 / 81  Model: end_to_end_model	8 / 81  Model: end_to_end_model	9 / 81  Model: end_to_end_model	10 / 81  Model: end_to_end_model	11 / 81  Model: end_to_end_model	12 / 81  Model: end_to_end_model	13 / 81  Model: end_to_end_model	14 / 81  Model: end_to_end_model	15 / 81  Model: end_to_end_model	16 / 81  Model: end_to_end_model	17 / 81  Model: end_to_end_model	18 / 81/home/studio-lab-user/.conda/envs/seq2kg/lib/python3.6/site-packages/scipy/spatial/distance.py:720: RuntimeWarning: invalid value encountered in double_scalars
  dist = 1.0 - uv / np.sqrt(uu * vv)
  Model: end_to_end_model	19 / 81  Model: end_to_end_model	20 / 81  Model: end_to_end_model	21 / 81  Model: end_to_end_model	22 / 81  Model: end_to_end_model	23 / 81  Model: end_to_end_model	24 / 81  Model: end_to_end_model	25 / 81  Model: end_to_end_model	26 / 81  Model: end_to_end_model	27 / 81  Model: end_to_end_model	28 / 81  Model: end_to_end_model	29 / 81  Model: end_to_end_model	30 / 81  Model: end_to_end_model	31 / 81  Model: end_to_end_model	32 / 81  Model: end_to_end_model	33 / 81  Model: end_to_end_model	34 / 81  Model: end_to_end_model	35 / 81  Model: end_to_end_model	36 / 81  Model: end_to_end_model	37 / 81  Model: end_to_end_model	38 / 81  Model: end_to_end_model	39 / 81  Model: end_to_end_model	40 / 81  Model: end_to_end_model	41 / 81  Model: end_to_end_model	42 / 81  Model: end_to_end_model	43 / 81  Model: end_to_end_model	44 / 81  Model: end_to_end_model	45 / 81  Model: end_to_end_model	46 / 81  Model: end_to_end_model	47 / 81  Model: end_to_end_model	48 / 81  Model: end_to_end_model	49 / 81  Model: end_to_end_model	50 / 81  Model: end_to_end_model	51 / 81  Model: end_to_end_model	52 / 81  Model: end_to_end_model	53 / 81  Model: end_to_end_model	54 / 81  Model: end_to_end_model	55 / 81  Model: end_to_end_model	56 / 81  Model: end_to_end_model	57 / 81  Model: end_to_end_model	58 / 81  Model: end_to_end_model	59 / 81  Model: end_to_end_model	60 / 81  Model: end_to_end_model	61 / 81  Model: end_to_end_model	62 / 81  Model: end_to_end_model	63 / 81  Model: end_to_end_model	64 / 81  Model: end_to_end_model	65 / 81  Model: end_to_end_model	66 / 81  Model: end_to_end_model	67 / 81  Model: end_to_end_model	68 / 81  Model: end_to_end_model	69 / 81  Model: end_to_end_model	70 / 81  Model: end_to_end_model	71 / 81  Model: end_to_end_model	72 / 81  Model: end_to_end_model	73 / 81  Model: end_to_end_model	74 / 81  Model: end_to_end_model	75 / 81  Model: end_to_end_model	76 / 81  Model: end_to_end_model	77 / 81  Model: end_to_end_model	78 / 81  Model: end_to_end_model	79 / 81  Model: end_to_end_model	80 / 81  Model: end_to_end_model                                   
    Score (random walk): 0.888
    Score (sim matrix) : 0.930

