index,s1,r,s2
0,central controller,known as,zFAS
0,twin - turbo,mated,eight - speed transmission
0,twin - turbo,with,lithium - ion battery
0,hybrid setup,generate,677 hp
0,0 - 62 mph,in,seconds
1,Dahler Design & Technik,introduce,convertible
1,stainless - steel exhaust system,provides,throatier soundtrack
1,high performance brake system,with,400 mm discs
1,mods,staggered,MID display
2,Alfa Romeo Giulia,found by,Autoblog Netherlands
2,Quadrifoglio model,with,505 horsepower
2,Italian man,set,record lap time
3,Ford,launched,first Expedition
3,Expedition,full,size
3,Explorer,switched to,SUV
3,Explorer,based on,Volvo sedan platform
3,twin - turbo 3.5-liter EcoBoost,with,twin
3,twin - turbo 3.5-liter EcoBoost,with,420 lb - ft of torque
3,Triton,been permanently,canned
4,Ferrari,only building,ten
4,engine,from,488
4,488 Spider,achieved,0 - 62 mph time
5,Porsche,pronounce,car fanatics
5,mispronounced,makes,ears bleed
6,Autonomous technology,hot topic in,car industry
6,Autonomous technology,has,self
6,Five states,requires,backup driver
7,awesome cars,featured,road trip
7,Amazon,released,trailer
7,trio,leaving,England
7,guys,building,cars
7,custom,part,green motorsport event
7,entire episode,centering around,custom - built
8,Lamborghini,having another go in,snow
8,Huracan Superleggera,replace,five - bolt wheels
8,Superleggera,prototype,large rear wing
9,Chiron,crashed into,ditch
9,Chiron,in,Germany
9,McLaren,suffered,New Zealand
9,Pagani Zonda,in,Tokyo
9,Pagani Zonda,a one,special edition
10,Los Angeles,is,car capital
10,city limits,contain,million people
10,urban design,drawn,urban design
10,Alfa Romeo,show Alfa its,Stelvio
10,Alfa Romeo,to,advertisement
10,new Stelvio,for,S curves
10,Angelenos,plastered,BMW X
11,Bugatti,to reveal,"new "" model"
11,Vision Gran Turismo,one,Bugatti
11,Veyron,than,beached whale whale
11,Vision Gran Turismo,take,trophy
12,six,Spending,six figures
12,internal combustion,to,pure EV tech
12,M,get,0 - 60 mph
12,falcon doors,on,Tesla
13,General Motors,finished restoring,1 millionth Corvette
13,GM ’ S Design,GM,Mechanical Assembly Group
14,Brabus,created,insane monster
14,Widestar,packs,turbocharged V8 engine
14,Widestar,pumps out,lb - ft of torque
14,SUV,fitted,Brabus sport exhaust system
14,Brabus sport exhaust system,with,stainless steel dual - side tailpipes
14,Widestart,at,Frankfurt Motor Show
15,Richard Petty,is,NASCAR
15,racing legend,donated,Mustang
15,Petty,features,Mustang blue color combination
15,HRE VMC forge aluminum wheels,complement,Petty Blue
15,special Mustang,features,exterior
15,Mustang,fitted,Roush TVS 2300 Supercharger
15,Mustang,with,cold - air intake
15,Mecum Auctions,at,Auction
16,Continental Orange Porsche 918 Spyder,with,Weissach package
16,Weissach package,boosts,918
16,918 wheels,with,magnesium units
16,Porsche 918 Spyder,powered,engine
16,Porsche 918 Spyder,produces,hybrid electric drive
17,Assembly Plant,negotiations,Fiat Chrysler
17,the Viper,phased out,2017
17,Viper,become,Dodge
17,Carroll Shelby,consulted on,early
17,Dodge,gives,axe
17,Phase II Viper GTS,built,1995 through 2002
18,aerodynamics,factor,aerodynamics
18,automotive engineers,were,airplane - throwing goofs
18,new model,feature,new aerodynamic technology
18,Yokohama,announced,of technology
18,Yokohama,completed,fins
18,Yokohama,put into,production
18,automakers,fighting,extra mpg
18,automakers,knock,extra mpg
18,sidewall fins,take away from,rims
19,Max Siedentopf,is,Dutch artist
19,Max Siedentopf,modify,tuner
19,Max Siedentopf,uses,masking tape
19,Max Siedentopf project,called,Slapdash Supercars
20,war,waged by,fuel
20,Tesla,banking on,electricity to drive
20,Toyota,is,electric cars
20,Toyota,struggles,hydrogen revolution happen
20,Tesla,flexes,charging infrastructure
21,Night Edition models,to debut,Detroit Auto Show
21,distinctive radiator grille,lavished in,high - gloss black finish
21,exclusive 20-inch AMG multi - spoke light - alloy wheels,feature,flange
21,mirror housings,coated,high - gloss black
21,S - Class Night,adapted,sportier look
21,Night Edition ” badge,fitted,front wings
21,Night Edition ” badge,with,Mercedes - Benz
22,Summer tires,have,rubber compound
22,summer tires,turn,traction - free rock
23,2017,at,Detroit Auto Show
23,show,opens,press
23,Detroit,in,car show
23,Porsche,would n't be,Detroit Auto Show
23,Ford,revealed,2017 GT
23,prototype,features,aggressive aerodynamics kit
23,prototype,features,huge rear wing
23,Corvette,power,this
24,Mitsubishi,closed,Japanese automaker
24,North American factory,in,Illinois
24,Outlander Sport,build,1988
24,joint venture,with,Chrysler
24,Rivian,buy,Automotive News
24,Rivian,plans,175 million
24,Rivian Automotive,founded in,2009
24,CEO RJ Scaringe,graduate,RPI
24,Rivian,developing,integrated portfolio of products
25,long box,for,small long box
25,stout,beans of,lines
25,Ford Taurus,of,mid 80 ’ s
25,consumers,for,pumps
26,BMW,both,rear - wheel drive
26,Bimmer,encapsulate,drive modes
26,owners,fun,rear - wheel
26,Mercedes,did with,AMG
27,grand tourer,continuation,grand
27,Christmas,delivered,Summer 2017
27,Aston,for,GT
27,GT Continuation,faithful to,1960
27,GT,based on,ultra - rare lightweight model
28,Lamborghini,making,SUV
28,Urus,revealed,2012 Bejing Auto Show
28,Lamborghini,with,design
28,Top Gear,s,Rowan
28,camouflage,lurking,wrapping
28,Volkswagen family,design,Audi
29,automakers,distinguish,automakers
29,brands,up,entire identity
29,Cars,like,Honda Accord
29,Lexus,skew,lofty comfort
30,Hellcat engine,powers,Dodge Charger
30,Frankenstein creation,is,SUV
30,Trailcat concept,happened for,extra
30,Trailcat,t,production
30,Dakota Customs,no longer pass,emissions tests
31,Lamborghini Aventador SV,going to be,limited edition thing
31,Lamborghini,to build,600 examples
31,Redline,up,rpm
32,man,breaking,San Francisco BMW dealer
32,police responded,to,hit and run report
32,thief,off,parked taxi
32,police,responded,domestic violence dispute
32,thief,taken,custody
33,Markus Storck,loves,Aston Martin
33,exterior finish,using,exclusive exterior finish
33,carbon wing badges,combine,trim
34,Ford,output specs,Shelby GT350 Mustang
34,flat - plane - frank,expect,flat
34,flat,expect,400 lb - ft of torque
34,Ford,announced,"526 hp at 7,500 rpm"
35,Las Vegas - based PSC Motors,revealed,hybrid
35,Motors,designed,American monster
35,mid - mounted,produce,1000 hp
35,SP - SIN,reach,dual - clutch transmission
35,SP - SIN,sprint,0 - 60
35,frame,includes,headlights
35,carbon,includes,intense splitter
35,rear,home to,clear engine cover
35,Jennarong Muengtaweepongsa,promises,production version
36,super sedan,to,BMW
36,It,comes with,miles
36,wagon,comes from,inline - six
36,Macao blue metallic model,complete,turbine rims
36,it,comes in,Silver Metallic
36,Formula,rated at,500 horses
37,Dodge,teased,Dodge Vision Gran Turismo concept car
37,Dodge,delivered,SRT Tomahawk
37,three trims,developed,Gran Turismo 6
37,SRT Tomahawk,sport,that
37,Tomahawk,drives,rear wheels
37,aerodynamic panels,assist,braking
37,GTS - R,has,curb weight
37,X,for,horsepower
37,SRT Tomahawk,available for,download
38,2016,t look,tall wagon
38,design,has,more prominent look
38,LED headlights,are,touch
38,Driving Assistant Plus package,with,Active Cruise Control
38,Driving Assistant Plus package,with,Lane Departure Warning
39,tank destroyer,crashes into,Porsche Cayman sports car
39,passengers,escaped,scratch
39,China,of,Congqing
39,tank destroyer,side,Cayman
40,ballsy,drive,around
40,donor cars,range,Toyota MR2 Spyder
41,Aston Martin,unveiled,Geneva
41,AM,added,carbon - fiber wide body kit
41,AM,added,side skirts
41,Vantage,weighs about,220 lbs
42,Caped Crusader,for,sale
42,Propane tanks,enable,flames
42,Propane,sits on,Hoosier tires
42,features,include,LED headlights
42,GTR Motors,in,Dubai
43,BMW,sale,2014
43,Officials,from,M division
43,BMW,s,anniversary
43,Auto Auto Express engineers,showcase,lightweight carbon fiber structure
43,drivetrain,consists,three - cylinder gasoline engine
43,engineers,with,over 300 hp
43,larger engine,feature,unpainted carbon - fiber body panels
43,BMW,to build,hardcore
44,Audi,at,Geneva Motor Show
44,Audi,between,luxury and performance
44,Audi,between,tremendous driving
44,interior,featuring,Havana Brown leather
44,Audi Exclusive full leather package,featuring,Piano Black finish
44,car,at,Audi Forum Neckarsulm
45,Chevrolet,bringing,Corvette
45,GM,out,Europe
45,2015 Goodwood Festival of Speed,happen,June
46,car,discontinued,2009
46,Honda,with,US
46,renderings,with,smaller body
46,smaller NSX,added to,Honda line up
47,Bugatti,has,engine that
47,Bugatti,refined,producing vehicles
47,Fraser Leid,introduced,British designer
47,yacht design,directly commissioned by,Bugatti
48,Bugatti,launched,part Legend series
48,Legend series,of,uniquely modified Gran Sport Vitesse models
48,Meo Constantini,named after,head of Bugatti ’ s factory race team
48,Meo Constantini,friend,Ettore Bugatti
48,Deals on Wheels,priced at,million AED
48,interior,pays tribute to,leather trim
48,quad - turbocharged W16 engine,rated at,hp
49,sucker,weighs,lbs
49,twin - turbo,producing,621 hp
49,twin - turbo,producing,738 lb - ft of torque
49,Jonny Lieberman,s,Bentleys
51,McLaren,in,London
51,wrap,add,layer of extra detail
51,chrome rims,blend,color
52,1971 Chevrolet Monte Carlo,has,six - figure price tag
52,Dennis McCarthy,for,Fast and Furious
52,Dennis McCarthy,made for,career favorite
52,Monte Carlo,has,350
52,Universal Pictures,will no longer sell,movie cars
53,Ford,has,accomplishment
53,Mustang,outselling,Chevy Camaro
53,the Camaro,figures of,units
53,Dodge Challenger,third with,cars
53,Ford,introduced,new Mustang
53,Chevy Camaro,bowed at,Camaro Isle
53,Mustang,prefer,counterpart
54,new report,from,Autocar
54,Wolfgang Durheimer,choose,Bentley boss
54,Durheimer,want,EXP
54,world,shortage of,two - seat luxury sports cars
55,Supercar tuning firms,want to watch,tuning firms
55,Vitesse,offer,carbon - fiber packages
55,Vitesse,for,Bugatti Veyron
56,Ferrari 458 Speciale,wrecked on,Nurburgring
56,the world,let out,a sigh
56,The Dead Ferrari,made,team
56,repaired Ferrari,for,month free of charge
56,donors,at,Nurburgring
57,Riva Aquarama,ordered by,Ferruccio
57,engine,put into,Lamborghini production car
57,We,in,We Touring Icons ” series
57,engines,speed,48
58,Hemi engines,make up,Mopar Mopar cars
58,Graveyard Carz Carz,owners,fabrication specialists
58,engine,contains,OEM parts
58,Graveyard Carz,premieres,Velocity
58,Graveyard Carz,about,video
59,Subaru Tecnica International,Unveiled,Japan
59,four,pack,punch
59,four,come with,revised damping
59,Brembo brakes,housed,rims
59,body,upgraded,bumpers
59,body,boasts,fiber trim
60,The Fast and the Furious,debuted,2001
60,Vin Diesel,success,Furious 7
60,Fast,at,Universal Studios Hollywood
61,Martin,resigned,Martin
62,Vette,than,Edition
62,special edition,modeled after,endurance racer
62,Edition,get,Performance Package
62,carbon fiber hood,is,carbon fiber
62,boys,yet,500 of
63,China,with,custom cars
63,China,s,craftsmen
63,helicopter car,called,China ’ s Dream
64,Chevrolet Camaro,debut,Chevrolet Camaro
64,Chevy,outselling,Ford Mustang
64,Fox News,at,New York Auto Show
65,Oval Office,given,new presidential limousine
65,vehicle,known,The Beast
65,President Obama,with,bullet - proof protective armor
65,Mark Fields,told,Ford CEO
65,Continental Concept,turned into,The Beast : Part 2
67,commercial,bounced from,NCAA
67,of the National Council for Behavioral Health,wrote to,CEO
67,BMW,responded,AdFreak
67,ad,intended,horror movie
67,ad,out,BMW ad - buy rotation
68,Scion,launching,FR - S
68,Scion,launching,BRZ twins
68,Chevrolet,with,Code
68,Nissan,with,IDx
68,Nissan,given up,business case
68,Code,become,Chevelle
69,turbo four,for,296 horsepower
69,seconds,designed for,0 to 60 sprint
69,aluminum spaceframe,paired with,carbon - fiber body panels
69,hatchback,described,true concept car
69,Hyundai,save,Veloster
70,Dodge,let,Dodge
70,Corvette,pumps out,650 hp
70,Corvette,pumps out,650 lb - ft
71,AMG,debut,IAA Frankfurt Motor Show
71,spec S model,wearing,aggressive body kit
71,pictures,with,aerodynamic
71,Mercedes - AMG,powered,engine
71,S Coupe,pump out,479 lb - ft of torque
71,the front end,featuring,large intakes
71,front end,featuring,angry - looking
71,rear,adds,taillights
71,rear,adds,prominent diffuser
72,Hoverboard,s,fourth
72,automaker,has,automaker
72,insulated core,featuring,superconducting blocks
72,superconductor,causes,superconductor
72,Lexus,selling in,comments
73,s AMG,focuses purely on,Mercedes - Benz
73,AMG,ignores,fuel economy
73,AMG,take,fuel economy
73,BMW,working with,hybrids
73,AMG customers,want,sportiest performance option
73,AMG,do,GT
73,torque boost,at,zero RPM
74,Ferrari FF,unveiled,2011
74,Ferrari FF,premiered at,1974 Turin Motor Show
74,Ferrari FF,s first,concept car
74,four - seater,with,front - engined four
74,Ferrari BB,s,flat 12
74,vintage photos,showing off,CR 25
75,JDM,importing,JDM R32 Nissan Skyline GT - R
75,prices,dies,hype
75,import ban,lifted,import ban
76,Fab,appeared,Jay Leno 's Garage
76,tires,features,Baja Claw tires
76,Baja Claw tires,features,extended wheelbase
76,Grumper,equipped,extra clearance
77,Porsche Cayenne,launched,2002
77,Cayenne,brought in,Porsche SUV
77,brands,from,Bentley
77,SUVs,from,Rolls - Royce
77,Aston Martin,planning,crossover
77,automakers,raking in huge profits with,crossovers
77,SUVs,bring,profit
78,Top Gear,on,BBC
78,new show,on,Amazon Prime
78,Hennessey Hennessey,it,sale
78,supercharger system,increase,626 hp
78,0 - 60 mph,happens in,seconds
78,features,include,fuel injector upgrade
78,features,include,flow air induction
79,2014 FT-1 Concept,serve as the design,design basis
79,Javier Oquendo Design,equipped,massive rear wing
79,Javier Oquendo Design,equipped,flared wheel arches
79,suit,ready,Super GT Supra
80,Ford Mustang,has,muscle car competition
80,muscle,owned by,Mustang
