index,s1,r,s2
0,Prologue Piloted Driving Concept,debuted in,LA
0,central controller,known as,zFAS
0,twin,mated,transmission
0,hybrid setup,enables,677 hp
0,0 - 62 mph,comes in at,seconds
1,Dahler Design & Technik,introduce,Dahler
1,Dahler,gave Dahler open,comes
1,stainless - steel exhaust system,provides,throatier soundtrack
1,wheels,staggered,inches front
2,smashed Alfa Romeo Giulia,found by,Autoblog Netherlands
2,Quadrifoglio model,with,505 horsepower
2,Italian man,t,record lap time
3,Ford,launched,Expedition
3,Explorer,switched to,true SUV
3,Explorer,based on,Volvo sedan platform
3,twin - turbo 3.5-liter EcoBoost,with,365 hp
3,Triton,been,permanently
4,Ferrari,building,ten
4,engine,lifted from,488
4,488 Spider,achieved,0 - 62 mph
5,Porsche,pronounce,car fanatics
6,Autonomous technology,a hot topic in,car industry
6,state,authorize,autonomous cars
6,Google,have,autonomous car market
7,cars,featured,road trip
7,Amazon,released,trailer
7,trio,in,England
7,guys,building,cars
7,custom cars,taking part in,motorsport event
7,custom car challenges,were some of the best episodes of,Top Gear
7,James May,s,custom job
7,clip,centerpiece,custom car challenge
7,entire episode,centering around,custom - built eco - cars
8,Lamborghini,keeping details,Huracan Superleggera light
8,Lamborghini,having another go in,Huracan
8,camouflage,served,bull
8,Superleggera,prototype,large rear wing
9,Bugatti Chiron,into,Germany
9,McLaren,suffered,New Zealand
9,Pagani Zonda,was a one - off,special edition
9,Zonda,involved,Maybach
9,Zonda Zozo,founder,Pagani
9,Pagani,generated by,range
10,Los Angeles,is the,car capital
10,city limits,contain,million people
10,Alfa Romeo,show Alfa its,Stelvio
10,Alfa Romeo,approach to,advertisement
10,Stelvio,intended,S curves
10,Angelenos,over,BMW X
11,Bugatti,about to reveal,"new "" model"
11,Vision Gran Turismo,take,sand - dwelling whales
12,super,such as,BMW
12,super SUVs,such as,BMW X5 M
12,internal,to,EV tech
12,M,sound,0 - 60 mph
13,sinkhole,swallowed,eight historic Corvettes
13,S Design,GM s,Mechanical Assembly Group
13,parts,carried,signature
13,GM,restored,Blue Devil ” prototype
14,Brabus,of,tuning companies
14,turbocharged V8 engine,pumps out,838 hp
14,standard turbos,replaced by,larger compressor units
14,sport exhaust system,fitted,Brabus sport
14,Widestar,get,62 mph
14,Brabus 850 G63 Widestart,at,Frankfurt Motor Show
15,The King,renowned for winning,NASCAR Championship seven
15,racing legend,donated,Mustang
15,Petty,s,Mustang blue color combination
15,Petty,s,garage
15,Mustang,features,performance parts
15,Mecum Auctions,at,Dallas Auction
16,Continental Orange Porsche 918 Spyder,with,Weissach package
16,Weissach package,boosts,918
16,918 wheels,with,magnesium units
16,engine,combined with,hybrid electric drive system
17,Dodge Viper,s,future
17,Connor Avenue Assembly Plant,negotiations between,Fiat Chrysler
17,the Viper,phased out completely in,2017
17,Viper,become,halo model
17,Carroll Shelby,consulted on,early
17,Dodge,gives,axe
17,Phase II Viper GTS,built from,1995 through 2002
17,they,were,blue
18,aerodynamics,huge factor in,performance
18,automotive engineers,were,airplane - throwing goofs
18,new model,feature,new aerodynamic technology
18,active aero systems,change,aerodynamic
18,Yokohama,completed research on,type of technology
18,technology,put into,production
18,sidewall fins,may take away from the aesthetics of,rims
19,Max Siedentopf,is,Dutch artist
19,Max Siedentopf,modify,tuner
19,Max Siedentopf,uses,masking tape
19,Max Siedentopf,called,Slapdash Supercars
19,hot hatch,with,cardboard wing
20,future,waged by,automakers
20,Tesla,banking on,electricity
20,Toyota,takes off,electric
20,Toyota,wants to make,hydrogen revolution happen
21,Class,known as,Mercedes - Benz
21,Night Edition models,Set to debut at,Detroit Auto Show
21,radiator grille,lavished in,high - gloss black finish
21,AMG multi - spoke light - alloy wheels,be,high
21,mirror,coated in,high - gloss black
21,S - Class Night Edition,look,bodystyling
21,Night Edition ” badge,been fitted to,front wings
22,words,typed,pages
22,Summer tires,have,rubber compound
22,summer tires,turn into,traction - free rock
23,show,opens,press
23,Detroit,in,show
23,Porsche,would n't be,Detroit Auto Show
23,Ford,revealed,2017 GT
23,prototype,features,aggressive aerodynamics kit
23,Corvette,will power,this
24,Mitsubishi,closed,North American factory
24,Outlander Sport,opened,1988
24,Rivian,report,plant
24,Rivian,plans to invest,175 million
24,Rivian Automotive,founded in,2009
24,Rivian,developing,products
24,mission,redefine,automotive economics
25,art,using,series
25,Crayola masterpiece,mom,fridge
25,Ford Taurus,of,mid 80 ’ s
25,consumers,pay,boxier cars
25,cars,like,ultra
26,Germany,s,Bimmer Today
26,BMW,s line of,xDrive vehicles
26,Bimmer,encapsulate,drive modes
26,owners,benefit,AWD safety
26,Mercedes,did with,new AMG
27,Aston Martin DB4 GT,back catalogue from,grand tourers
27,25,being,built
27,Christmas,delivered,Summer 2017
27,Aston,plans for,GT
27,GT Continuation,remains faithful to,1960 ’ s counterpart
27,GT,be based on,ultra - rare lightweight model
28,Lamborghini,making an,SUV
28,Urus,revealed,2012 Bejing Auto Show
28,Top Gear Magazine,s,Rowan
28,Lamborghini,lurking on,wrapping
28,Volkswagen,design inspiration,Audi
29,out,during,transition
29,consolidation,could see,large name brands
29,entire identity,behind their,driving
29,Cars,like,Honda Accord
29,cars,like,Volkswagen Jetta
29,car,can drive,car
30,Hellcat engine,powers,the Dodge Charger
30,Jeep Wrangler,of,capable off - roaders
30,HEMI V8 engine,from,aforementioned muscle cars
30,cost,of a,Jeep Wrangler
30,Trailcat concept,happened for,extra
30,Trailcat,t going to go into,production
31,Lamborghini Aventador SV,going to be a,limited edition thing
31,Lamborghini,planned to build exactly,600 examples
31,three global regions,offered,200 units
31,Aventador,see,SV
31,Redline,up,rpm
32,he,through,side window
32,police responded,to,run report
32,thief,smashed,foot
32,police,call,domestic violence dispute
32,thief,taken into,custody
32,family,had,break - in
33,Markus Storck,loves,Martin
33,Founder,head,hi
33,exclusive exterior finish,using,carbon fiber
33,seats,combine with,logos
34,Ford,at,LA Auto Show
34,Shelby,have,"526 hp at 7,500 rpm"
34,Shelby,have a,base
35,SIN,limited to,35 units
35,SP - SIN,reach,280 mph
35,frame,wrapped,slim headlights
35,wheel arch - mounted wing mirrors,noticeable are,air intakes
35,rear,home to,clear engine cover
35,Jennarong,promises,production
36,wagon,of,891
36,Macao blue metallic model,complete with,turbine rims
36,Formula,rated at,500 horses
37,Dodge,delivered,SRT Tomahawk
37,three trims,developed,Gran Turismo 6
37,concept,capable of,2035
37,Dodge,dubbed,variable - fin quad - stage pneumatic power unit
37,aerodynamic panels,assist with,braking
37,aerodynamic panels,assist,traction
37,SRT Tomahawk,are,entry level S
37,GTS - R,has,curb weight
37,X,good for,horsepower
37,SRT Tomahawk,available for,download
38,2016,t look,tall wagon
38,front end,has,more prominent look
38,LED headlights,are,touch
38,body,has,plastic cladding
38,interior,is,improvement
38,occupants,optional bits such,Dakota leather seats
38,Plus,with,heads - up
39,tank destroyer,crashes into,tiny yellow Porsche Cayman sports car
39,Porsche Cayman,emerged from,accident
39,passengers,escaped without,scratch
39,China,city of,Congqing
39,tank destroyer,barreling straight into,Cayman
39,100 millimeter cannon,equipped,enemy tanks
39,one,destroyed in,accident
40,ballsy,drive,around
40,donor cars,range,Toyota MR2 Spyder
40,Pontiac Fiero,for,fake supercar transformation needs
40,10 replica,re,fakes
41,AM,added bits,carbon - fiber wide body kit
41,Vantage,weighs about,220 lbs
41,Vantage,less than,100
42,Caped Crusader,drove,Dubai - based dealer
42,Propane tanks,enable,rear
42,features,include,LED headlights
42,GTR Motors,in,Dubai
43,BMW,on sale,2014
43,Officials,from it,M
43,BMW,s,anniversary
43,Auto Auto Express engineers,from,i
43,drivetrain,consists of,three - cylinder gasoline engine
43,four - banger,with,over 300 hp
43,BMW,has an ideal reason to build,hardcore
44,car,display at,Audi Forum Neckarsulm
45,Chevrolet,bringing,Corvette
45,Corvette,phasing,Europe
45,2015 Goodwood Festival of Speed,happen from,June
46,rear - wheel drive roadster,was incredibly popular,fans
46,car,discontinued in,2009
46,Honda,with,US Patent office
46,renderings,similar,smaller body
46,smaller NSX,could be added to,Honda line up
47,Bugatti,carved out,most pristine vehicles
47,Bugatti,has,engine that
47,single engine,for,Bugatti
47,Bugatti,refined,vehicles
47,concept,bear,Bugatti logo
47,Fraser Leid,introduced,designer
47,yacht design,not directly commissioned by,Bugatti
47,Buyachti,cues from,Bugatti
48,Meo Constantini,named after,head
48,Deals on Wheels,priced at,million AED
48,Targa Florio race course,located on,rear wing
48,interior,equipped,leather trim
48,quad - turbocharged W16 engine,rated at,hp
49,sucker,weighs,lbs
49,order,for,dealership
49,twin - turbo,producing,621 hp
49,Motor,s,Jonny
50,LA biker,heard,helmet - mounted camera
50,Ayres,knocked off,bike Ayres
50,BMW driver,knock,biker
51,McLaren,t require,hypercar
51,McLaren P1 spotted,in,London
51,wrap,surrounds,extra
51,chrome rims,make,body color
52,1971 Chevrolet Monte Carlo,has,six - figure price tag
52,Monte Carlo,done by,"Guru "" Hollywood movie car"
52,Dennis McCarthy,made for,Dennis
52,350,with,350
52,Universal Pictures,will no longer sell,movie cars
53,Mustang,outselling,Chevy Camaro
53,Camaro,of,units
53,Dodge Challenger,Dodge third with,cars sold
53,Ford,introduced,new Mustang
53,Chevy Camaro,bowed at,Camaro Isle
53,Camaro,steal,Hellcat package
53,engine options,put,Mustang
53,four - cylinder EcoBoost Mustang,to,big V8 counterpart
54,new report,from,Autocar
54,EXP 10 Speed 6 concept,shown off at,Geneva motor show
54,Bentley,still a,small company
54,world,shortage of,two - seat luxury sports cars
55,Supercar tuning firms,want to watch,Supercar tuning firms
55,carbon - fiber packages,for,Bugatti Veyron
56,Ferrari 458 Speciale,wrecked on,Nurburgring
56,world,let out,a sigh
56,owner,of,458
56,team,made,video
56,people,to,project
56,donors,invite,Nurburgring
57,Riva,ordered by,founder
57,engine,put into,Lamborghini production car
57,engines,good for,48
57,awesome pictures,ogle,enjoy
58,Hemi engines,from,muscle
58,Mopar,owners,fabrication specialists
58,engine,contains,OEM parts
58,Graveyard Carz,premieres,Velocity
58,Velocity,re - airing,five episodes
59,Subaru Tecnica International,Unveiled,STI
59,four - pot,continuing to pack,punch
59,Brembo brakes,housed in,rims
59,body,upgraded with,under spoiler
60,Furious,debuted in,2001
60,Furious 7,star,Vin Diesel
60,Universal Studios,wants,franchise
60,Supercharged,at,Universal Studios Hollywood
60,Owen Shaw,s,Star Tours
61,chairman,of the board for,Volkswagen
62,Vette,than,Edition
62,special edition,modeled after,endurance racer
62,Corvette,available in,black
62,Edition,get the,Performance Package
62,bad boys,yet to announce,500
63,China,filled with,bizarre custom cars
63,China,s,craftsmen
63,Chinese,dream of,cars
63,massive cabin,and,air conditioning
64,Chevy,continue outselling,Ford Mustang
65,Oval Office,given a,new presidential limousine
65,vehicle,known,Beast
65,Cadillac,going to have,next presidential limo
65,Continental Concept,turned into,The Beast : Part 2
66,Top Gear,removed from,Jeremy
66,Stig,remains on,top banner
66,host,t renewed by,BBC
66,images,appears on,Top Gear Middle East
67,TV commercial,offends,someone
67,BMW,controversy over,commercial
67,Cute Cottage,for the,ad
67,the National Council for Behavioral Health,wrote to,BMW
67,BMW,responded to,AdFreak
67,ad,intended to spoof,horror movie
67,ad,run out of,BMW ad - buy rotation
68,Scion,launching the,FR - S
68,Miata Mazda,t build,small rear seat
68,volumes,of,things
68,Code,become,Chevelle
69,RM,stands for,Racing Midship
69,turbo four,good for,296 horsepower
69,Veloster,designed for,seconds
69,aluminum spaceframe,paired with,carbon - fiber body panels
69,hatchback,described as,true concept car
69,Hyundai,hopes to save,Veloster
70,Dodge,going to let Chevrolet off,easy
70,Dodge,had,Corvette
70,Corvette,pumps out,Corvette
71,S model,wearing,aggressive body kit
71,standard model,deliver,469 hp
71,front end,identical,large intakes
71,rear,retains,taillights
72,Back,keeping,Lexus Hoverboard
72,The,automaker,teaser
72,flip tricks,expect,hover kick flips
72,the skater,trouble keeping his,skater
72,tech,behind,board
72,automaker,has,layers
72,insulated core,featuring,superconducting blocks
72,reservoirs,of,liquid nitrogen
72,superconductor,causes,superconductor
72,Lexus,selling in,comments
73,Mercedes,focuses purely on,performance
73,AMG,ignores,fuel economy
73,AMG,will take,fuel economy
73,BMW,begun working with,hybrids
73,He,t,it
73,AMG customers,want,sportiest performance option
73,AMG,do,hybrid
73,torque boost,at,zero RPM
74,Ferrari FF,unveiled,2011
74,Ferrari FF,premiered at,1974 Turin Motor Show
74,Ferrari FF,s,car
74,front - engined four - seater,with,minimum drag coefficient
74,Ferrari BB,s,flat 12
74,vintage photos,showing off,CR 25
74,Camels,back,thing
75,price,surge in,demand
75,pricing,t expected to last,forever
75,hype,dies down,year
76,Legend 2,next generation,Fab Fours
76,GM crate,comes courtesy of,480 hp
76,Legend 2,worthy of,engine
77,Porsche Cayenne,launched back,2002
77,Cayenne,s,Porsche SUV Porsche
77,SUVs,from,Bentley
77,Aston Martin,planning a,crossover
77,Porsche,raking in huge profits with,crossovers
78,new show,on,Amazon Prime
78,Hennessey Hennessey,it up,sale
78,Jeremy Clarkson,s,denim - covered ass
78,Hennessey Performance,into,VelociRaptor Jezza
78,supercharger system,to,626 hp
78,0 - 60 mph,happens in,seconds
78,features,include,fuel injector upgrade
79,2014 FT-1 Concept,serve as the design basis and inspiration for,Supra
79,Supra,homegrown,BMW
79,Javier Oquendo Design,equipped,massive rear wing
79,Super,ready to take on,Japanese racing wars
80,muscle car,immediate plans,2016 Chevrolet Camaro Down
80,Australia,need of,another American muscle car
